<?xml version="1.0" encoding="utf-8"?>
<!-- Generator: Adobe Illustrator 22.1.0, SVG Export Plug-In . SVG Version: 6.00 Build 0)  -->
<svg version="1.1" id="Capa_1" xmlns="http://www.w3.org/2000/svg" xmlns:xlink="http://www.w3.org/1999/xlink" x="0px" y="0px"
	 viewBox="0 0 600 184.1" style="enable-background:new 0 0 600 184.1;" xml:space="preserve">
<style type="text/css">
	.st0{fill-rule:evenodd;clip-rule:evenodd;fill:#FFFFFF;}
	.st1{fill:#FFFFFF;}
</style>
<g>
	<g>
		<g>
			<g>
				<g>
					<g>
						<g>
							<g>
								<path class="st0" d="M107.4,128.4c-10.9,5.5-27.6,7.4-39.9,7.4C28.7,135.8,0,110.5,0,71.1C0,34.2,24.9,0,72,0
									c11.6,0,25.8,2.2,33.7,4.6l2.6,24c-8-9.5-21.8-16.8-36.1-16.8c-24.5,0-44.9,12.9-44.9,54.1c0,24.7,12.6,57.7,47.5,57.7
									c15.2,0,28.4-10.5,37-22.3c0.2,1.7,0.4,3.6,0.4,5.5C112.1,114,110.5,120.7,107.4,128.4L107.4,128.4z"/>
								<path class="st0" d="M227.5,128.4c-10.9,5.5-27.6,7.4-39.9,7.4c-38.8,0-67.5-25.2-67.5-64.7c0-36.9,24.8-71.1,72-71.1
									c11.6,0,25.8,2.2,33.7,4.6l2.6,24c-7.9-9.5-21.7-16.8-36.1-16.8c-24.5,0-44.9,12.9-44.9,54.1c0,24.7,12.6,57.7,47.5,57.7
									c15.2,0,28.3-10.5,36.9-22.3c0.2,1.7,0.4,3.6,0.4,5.5C232.2,114,230.6,120.7,227.5,128.4L227.5,128.4z"/>
								<path class="st0" d="M334.3,131.8H242c3.8-3.4,5.2-6.2,5.2-12V16.5c0-4.8-0.5-8.6-5.5-12.4h36.1c-4.8,3.3-5.5,8.1-5.5,12.4
									v102.3c5.7,0.7,14.9,1,19.9,1c15.7,0,32.8-0.2,45.4-6L334.3,131.8L334.3,131.8z"/>
							</g>
							<g>
								<rect x="357.1" y="4" class="st1" width="1.2" height="129.3"/>
							</g>
							<g>
								<path class="st1" d="M403.7,34.8l0,3.5v0.5c0,0.3,0,0.6-0.1,0.7c0,0.2-0.1,0.3-0.2,0.4c-0.4,0.5-1.2,1-2.3,1.3
									c-1.1,0.4-2.3,0.6-3.6,0.6c-1.5,0-2.9-0.3-4.1-1c-1.2-0.7-2.4-1.7-3.4-3c-1.1-1.4-1.9-2.9-2.4-4.7c-0.5-1.7-0.8-3.6-0.8-5.6
									c0-4.2,1-7.6,3.1-10.2c2.1-2.6,4.8-3.9,8-3.9c1.2,0,2.2,0.1,3.2,0.4c0.9,0.3,1.6,0.6,1.8,0.9c0.1,0.1,0.2,0.3,0.2,0.6
									c0,0.3,0.1,0.6,0.1,1.1l0.1,4.1c0,0.3,0,0.6-0.1,0.7c-0.1,0.1-0.2,0.2-0.5,0.2c-0.5,0-0.9-0.6-1.3-1.9
									c-0.1-0.3-0.2-0.6-0.3-0.8c-0.5-1.5-1.1-2.6-1.7-3.1c-0.6-0.6-1.3-0.9-2.2-0.9c-1.9,0-3.3,1-4.4,3.1
									c-1.1,2.1-1.6,4.9-1.6,8.5c0,4.4,0.6,7.9,1.7,10.4c1.1,2.6,2.6,3.8,4.5,3.8c1,0,1.8-0.4,2.6-1.2c0.8-0.8,1.3-1.8,1.6-3.2
									c0.1-0.5,0.2-1.1,0.4-1.9c0.3-1.5,0.7-2.3,1.1-2.3c0.2,0,0.4,0.1,0.5,0.3c0.1,0.2,0.1,0.6,0.1,1.3V34.8z"/>
								<path class="st1" d="M422.5,14V20c0,0.3,0,0.6-0.1,0.6c-0.1,0.1-0.2,0.1-0.3,0.1c-0.3,0-0.6-0.4-0.9-1.2
									c-0.2-0.6-0.4-1-0.6-1.4c-0.5-1.1-1.2-1.8-1.9-2.2c-0.8-0.4-1.8-0.7-3.2-0.7c-1,0-1.7,0.1-2,0.3c-0.3,0.2-0.5,0.7-0.5,1.4v8
									c0,0.3,0.1,0.4,0.3,0.5c0.2,0.1,0.5,0.2,0.9,0.2h1.1c0.9,0,1.6-0.1,2.1-0.3c0.5-0.2,0.9-0.5,1.2-1c0.2-0.3,0.4-0.7,0.6-1.4
									c0.2-0.6,0.4-1,0.7-1c0.2,0,0.3,0,0.4,0.1c0.1,0.1,0.1,0.3,0.1,0.7v7c0,0.5,0,0.8-0.1,1c-0.1,0.2-0.2,0.3-0.4,0.3
									c-0.3,0-0.6-0.4-0.8-1.2c-0.1-0.5-0.3-1-0.4-1.2c-0.3-0.7-0.7-1.1-1.1-1.3c-0.4-0.2-1.2-0.4-2.4-0.4h-1.2
									c-0.3,0-0.5,0.1-0.7,0.2c-0.1,0.2-0.2,0.5-0.2,0.9V35c0,1.9,0.2,3.2,0.7,3.9c0.5,0.7,1.4,1.1,2.6,1.1c1.4,0,2.6-0.3,3.4-0.9
									c0.8-0.6,1.5-1.6,1.9-3c0.1-0.3,0.2-0.8,0.3-1.3c0.2-0.9,0.5-1.4,0.9-1.4c0.2,0,0.4,0,0.4,0.1c0.1,0.1,0.1,0.3,0.1,0.7v5.9
									c0,0.6-0.1,0.9-0.2,1c-0.1,0.1-0.5,0.2-1.1,0.2c-0.9,0-2.3,0-4.2-0.1c-1.9,0-3.4-0.1-4.5-0.1h-6c-0.5,0-0.9,0-1-0.1
									c-0.1-0.1-0.2-0.2-0.2-0.4c0-0.2,0.2-0.4,0.6-0.5c0.3-0.1,0.5-0.2,0.6-0.3c0.5-0.1,0.8-0.3,1-0.6c0.2-0.3,0.3-0.8,0.3-1.7
									V17.2c0-0.7-0.1-1.1-0.2-1.4c-0.1-0.2-0.3-0.4-0.6-0.6c-0.1,0-0.4-0.1-0.7-0.1c-0.7-0.1-1.1-0.3-1.1-0.7
									c0-0.1,0.1-0.2,0.2-0.3c0.1-0.1,0.4-0.1,0.7-0.1h7.1c1.8,0,3.3,0,4.5,0C420,14.1,421.3,14.1,422.5,14z"/>
								<path class="st1" d="M443.7,40c0,0.7,0,1.1-0.1,1.3c-0.1,0.2-0.2,0.2-0.5,0.2c-0.2,0-0.3-0.1-0.5-0.2
									c-0.2-0.1-0.3-0.3-0.4-0.5l-10.8-19.3c-0.3-0.5-0.6-1-0.8-1.3c-0.2-0.3-0.4-0.5-0.5-0.5c-0.1,0-0.2,0-0.2,0.1
									c0,0.1-0.1,0.3-0.1,0.6l0.1,17c0,0.6,0.1,1.1,0.3,1.4c0.2,0.4,0.5,0.6,0.8,0.7c0.2,0.1,0.5,0.1,0.8,0.1
									c0.8,0.1,1.2,0.4,1.2,0.7c0,0.2-0.1,0.4-0.3,0.4c-0.2,0.1-0.6,0.1-1.2,0.1c-0.1,0-0.2,0-0.4,0c-0.9,0-1.7-0.1-2.6-0.1
									c-0.2,0-0.4,0-0.8,0c-0.3,0-0.6,0-0.8,0c-0.4,0-0.7,0-0.9-0.1c-0.1-0.1-0.2-0.2-0.2-0.4c0-0.4,0.4-0.7,1.2-0.8
									c0.1,0,0.2,0,0.3-0.1c0.5-0.1,0.9-0.2,1-0.4c0.1-0.2,0.2-0.7,0.2-1.5l0-21.1c0-0.5-0.1-0.8-0.2-1.1
									c-0.1-0.2-0.3-0.3-0.6-0.4c-0.1,0-0.4-0.1-0.6-0.1c-0.7-0.2-1-0.4-1-0.7c0-0.2,0.1-0.3,0.3-0.3c0.2-0.1,0.5-0.1,0.9-0.1h1
									h2.8c0.5,0,0.9,0.3,1.2,0.9c0.1,0.2,0.2,0.4,0.3,0.5l8.2,15.1c0.3,0.5,0.6,0.9,0.8,1.2c0.3,0.3,0.5,0.5,0.6,0.5
									c0.1,0,0.2,0,0.2-0.1c0-0.1,0.1-0.3,0.1-0.6l-0.2-13.7c0-0.7-0.1-1.2-0.2-1.5c-0.2-0.3-0.4-0.6-0.8-0.7
									c-0.2,0-0.4-0.1-0.8-0.1c-0.9-0.1-1.3-0.3-1.3-0.7c0-0.3,0.1-0.4,0.4-0.6c0.3-0.1,0.7-0.2,1.2-0.2c0.1,0,0.2,0,0.4,0
									c0.9,0,1.7,0.1,2.5,0.1c0.2,0,0.4,0,0.8,0c0.3,0,0.6,0,0.8,0c0.3,0,0.6,0.1,0.8,0.2c0.2,0.1,0.3,0.3,0.3,0.5
									c0,0.5-0.4,0.8-1.3,0.8c-0.1,0-0.1,0-0.2,0c-0.5,0.1-0.9,0.3-1,0.5c-0.1,0.2-0.2,0.7-0.2,1.5V40z"/>
								<path class="st1" d="M461.6,14.1c0.9,0,1.7-0.2,2.2-0.7c0.6-0.5,0.9-0.7,1-0.7c0.2,0,0.3,0,0.4,0.1c0.1,0.1,0.1,0.2,0.1,0.4
									c0,0.6-0.1,1.6-0.2,3.2c-0.1,1.5-0.2,2.8-0.2,3.8c0,0.5-0.1,0.8-0.2,1c-0.1,0.2-0.3,0.2-0.5,0.2c-0.4,0-0.7-0.6-1-1.9
									c-0.1-0.4-0.1-0.7-0.2-1c-0.2-1.1-0.6-2-1.2-2.5c-0.5-0.5-1.3-0.7-2.3-0.7c-0.4,0-0.6,0.1-0.7,0.2c-0.1,0.1-0.2,0.5-0.2,1.1
									v21.2c0,0.7,0.1,1.2,0.2,1.5c0.1,0.3,0.3,0.5,0.6,0.6c0.1,0,0.3,0.1,0.5,0.1c0.8,0.1,1.2,0.3,1.2,0.7c0,0.2-0.1,0.3-0.3,0.4
									c-0.2,0.1-0.4,0.1-0.6,0.1c-0.1,0-0.2,0-0.5,0c-1,0-2-0.1-2.9-0.1c-0.6,0-1.3,0-2.2,0c-0.8,0-1.3,0-1.5,0
									c-0.5,0-0.8,0-1-0.1c-0.2-0.1-0.3-0.3-0.3-0.5c0-0.2,0.2-0.4,0.6-0.5c0.3-0.1,0.5-0.1,0.6-0.2c0.5-0.1,0.8-0.3,1-0.6
									c0.2-0.3,0.3-0.8,0.3-1.7V15.9c0-0.3-0.1-0.5-0.1-0.6c-0.1-0.1-0.3-0.1-0.6-0.1c-0.9,0-1.6,0.3-2.2,0.8
									c-0.6,0.5-1.3,1.5-2,2.9c-0.2,0.3-0.4,0.7-0.6,1.3c-0.4,0.8-0.7,1.2-0.9,1.2c-0.1,0-0.2,0-0.3-0.1c-0.1-0.1-0.1-0.2-0.1-0.3
									c0-0.2,0.1-0.8,0.2-1.9c0.1-1.1,0.3-2.2,0.5-3.5c0-0.2,0.1-0.4,0.1-0.7c0.2-1.5,0.5-2.2,0.9-2.2c0.3,0,0.5,0.2,0.7,0.5
									c0.1,0.1,0.1,0.2,0.1,0.3c0.2,0.2,0.4,0.4,0.7,0.5c0.3,0.1,0.7,0.2,1.3,0.2H461.6z"/>
								<path class="st1" d="M469.3,17.1c0-0.6-0.1-1.1-0.2-1.4c-0.1-0.3-0.3-0.5-0.6-0.6c-0.1,0-0.3,0-0.5,0
									c-0.8,0-1.2-0.2-1.2-0.6c0-0.2,0.1-0.3,0.2-0.4c0.1-0.1,0.4-0.1,0.6-0.1c0,0,0.3,0,0.8,0.1c0.5,0,0.9,0.1,1.4,0.1
									c0.4,0,1.2,0,2.5-0.1c1.3,0,2.4-0.1,3.2-0.1c3.4,0,5.9,0.5,7.4,1.6c1.6,1.1,2.3,2.7,2.3,5c0,1.6-0.5,2.9-1.5,4
									c-1,1.1-2.5,2-4.7,2.8c0.8,0.2,1.5,0.9,2,2.1c0,0.1,0.1,0.1,0.1,0.2l3.5,7.7c0.3,0.6,0.6,1.2,1,1.6c0.4,0.4,0.7,0.8,1,1
									c0.1,0.1,0.4,0.1,0.7,0.2c0.5,0.1,0.7,0.3,0.7,0.5c0,0.2-0.1,0.3-0.2,0.4c-0.1,0.1-0.3,0.1-0.6,0.1c-0.4,0-1.1,0-1.8,0
									c-0.8,0-1.3,0-1.7,0c-0.4,0-0.8,0-1.2,0c-0.4,0-0.6,0-0.7,0c-0.3,0-0.5-0.2-0.6-0.5c0-0.1-0.1-0.2-0.1-0.2L477,30.3
									c-0.5-1.1-0.9-1.8-1.2-2c-0.3-0.3-0.8-0.4-1.4-0.4c-0.2,0-0.3,0-0.5,0c-0.1,0-0.3,0.1-0.4,0.1v9.9c0,0.7,0.1,1.2,0.2,1.5
									c0.1,0.3,0.4,0.5,0.7,0.6c0.2,0,0.5,0.1,0.9,0.1c0.7,0.1,1,0.3,1,0.6c0,0.2-0.1,0.3-0.2,0.3c-0.1,0.1-0.4,0.1-0.7,0.1
									c-0.1,0-0.5,0-1.3,0c-0.8,0-1.4,0-2.1,0c-0.7,0-1.6,0-2.4,0c-0.9,0-1.4,0-1.5,0c-0.6,0-0.9,0-1-0.1
									c-0.1-0.1-0.2-0.2-0.2-0.4c0-0.2,0.2-0.4,0.6-0.5c0.3-0.1,0.5-0.2,0.6-0.3c0.5-0.1,0.8-0.3,1-0.6c0.2-0.3,0.3-0.8,0.3-1.7
									V17.1z M473.6,17.1v7.1c0,1.1,0.1,1.8,0.3,2c0.2,0.3,0.6,0.4,1.2,0.4c1.8,0,3.2-0.5,4.1-1.6c1-1.1,1.5-2.6,1.5-4.5
									c0-1.7-0.4-3.1-1.3-4c-0.9-0.9-2.1-1.4-3.7-1.4c-0.9,0-1.4,0.1-1.7,0.3C473.7,15.7,473.6,16.2,473.6,17.1z"/>
								<path class="st1" d="M488.3,27.7c0-1.8,0.2-3.6,0.7-5.3c0.5-1.7,1.2-3.2,2-4.5c1-1.4,2.2-2.5,3.5-3.3c1.3-0.8,2.7-1.2,4-1.2
									c1.2,0,2.4,0.3,3.5,0.8c1.2,0.6,2.2,1.4,3.2,2.4c1.3,1.4,2.2,3,2.9,4.9c0.7,1.9,1,3.9,1,6.1c0,4-1,7.4-3,10.1
									c-2,2.7-4.4,4.1-7.3,4.1c-1.2,0-2.4-0.3-3.5-0.8c-1.1-0.6-2.2-1.4-3.2-2.4c-1.3-1.3-2.3-2.9-2.9-4.8
									C488.6,31.9,488.3,29.9,488.3,27.7z M498.2,14.6c-1.6,0-2.9,1.1-3.9,3.4c-1,2.3-1.5,5.3-1.5,9c0,3.9,0.6,7.2,1.9,9.7
									c1.2,2.6,2.7,3.9,4.4,3.9c1.6,0,2.9-1.1,3.9-3.4c1-2.3,1.5-5.3,1.5-9.1c0-3.9-0.6-7.1-1.8-9.7
									C501.4,15.9,499.9,14.6,498.2,14.6z"/>
								<path class="st1" d="M523.3,17.6c0-0.8-0.1-1.3-0.3-1.5c-0.2-0.3-0.5-0.4-0.9-0.4c-0.1,0-0.3,0-0.6,0c-0.3,0-0.5,0-0.7,0
									c-0.2,0-0.4-0.1-0.6-0.2c-0.1-0.1-0.2-0.2-0.2-0.4c0-0.5,0.8-0.9,2.5-1.2c1.7-0.3,3.9-0.5,6.6-0.5c1.9,0,3.6,0.2,4.9,0.7
									c1.4,0.5,2.6,1.2,3.7,2.2c1.4,1.3,2.5,2.9,3.3,4.7c0.8,1.9,1.2,3.9,1.2,6c0,4.3-1.1,7.8-3.3,10.4c-2.2,2.6-5.2,3.9-8.9,3.9
									c-0.4,0-1.3-0.1-2.5-0.2c-1.3-0.1-2.3-0.2-3.1-0.2c-0.5,0-1.2,0-1.9,0c-0.7,0-1.1,0-1.3,0c-0.5,0-0.9,0-1-0.1
									c-0.1-0.1-0.2-0.2-0.2-0.3c0-0.3,0.3-0.4,0.8-0.5c0.5,0,0.9-0.1,1.1-0.2c0.5-0.2,0.8-0.4,1-0.7c0.2-0.3,0.3-0.9,0.3-1.7
									V17.6z M527.4,18.7v18.4c0,1.1,0.2,1.9,0.6,2.4c0.4,0.5,1.1,0.7,2.1,0.7c2.4,0,4.3-1.1,5.6-3.3c1.3-2.2,1.9-5.4,1.9-9.5
									c0-3.9-0.7-7-2.1-9.4c-1.4-2.3-3.3-3.5-5.5-3.5c-1,0-1.7,0.3-2,0.9C527.6,16,527.4,17.1,527.4,18.7z"/>
								<path class="st1" d="M561.1,14V20c0,0.3,0,0.6-0.1,0.6c-0.1,0.1-0.2,0.1-0.3,0.1c-0.3,0-0.6-0.4-1-1.2
									c-0.2-0.6-0.4-1-0.6-1.4c-0.5-1.1-1.2-1.8-1.9-2.2c-0.8-0.4-1.8-0.7-3.2-0.7c-1,0-1.7,0.1-2,0.3c-0.3,0.2-0.5,0.7-0.5,1.4v8
									c0,0.3,0.1,0.4,0.3,0.5c0.2,0.1,0.5,0.2,0.9,0.2h1.1c0.9,0,1.6-0.1,2.1-0.3c0.5-0.2,0.9-0.5,1.2-1c0.2-0.3,0.4-0.7,0.6-1.4
									c0.2-0.6,0.4-1,0.7-1c0.2,0,0.3,0,0.4,0.1c0.1,0.1,0.1,0.3,0.1,0.7v7c0,0.5,0,0.8-0.1,1c-0.1,0.2-0.2,0.3-0.4,0.3
									c-0.3,0-0.6-0.4-0.8-1.2c-0.1-0.5-0.3-1-0.4-1.2c-0.3-0.7-0.7-1.1-1.1-1.3c-0.4-0.2-1.2-0.4-2.4-0.4h-1.2
									c-0.3,0-0.5,0.1-0.7,0.2c-0.1,0.2-0.2,0.5-0.2,0.9V35c0,1.9,0.2,3.2,0.7,3.9c0.5,0.7,1.4,1.1,2.6,1.1c1.4,0,2.6-0.3,3.4-0.9
									c0.8-0.6,1.5-1.6,1.9-3c0.1-0.3,0.2-0.8,0.3-1.3c0.2-0.9,0.5-1.4,0.9-1.4c0.2,0,0.4,0,0.4,0.1c0.1,0.1,0.1,0.3,0.1,0.7v5.9
									c0,0.6-0.1,0.9-0.2,1c-0.1,0.1-0.5,0.2-1.1,0.2c-0.9,0-2.3,0-4.2-0.1c-1.9,0-3.4-0.1-4.5-0.1h-6c-0.5,0-0.9,0-1-0.1
									c-0.1-0.1-0.2-0.2-0.2-0.4c0-0.2,0.2-0.4,0.6-0.5c0.3-0.1,0.5-0.2,0.6-0.3c0.5-0.1,0.8-0.3,1-0.6c0.2-0.3,0.3-0.8,0.3-1.7
									V17.2c0-0.7-0.1-1.1-0.2-1.4c-0.1-0.2-0.3-0.4-0.6-0.6c-0.1,0-0.4-0.1-0.7-0.1c-0.7-0.1-1.1-0.3-1.1-0.7
									c0-0.1,0.1-0.2,0.2-0.3c0.1-0.1,0.4-0.1,0.7-0.1h7.1c1.8,0,3.3,0,4.5,0C558.6,14.1,559.9,14.1,561.1,14z"/>
								<path class="st1" d="M403.7,78l0,3.5V82c0,0.3,0,0.6-0.1,0.7c0,0.2-0.1,0.3-0.2,0.4c-0.4,0.5-1.2,1-2.3,1.3
									c-1.1,0.4-2.3,0.6-3.6,0.6c-1.5,0-2.9-0.3-4.1-1c-1.2-0.7-2.4-1.7-3.4-3c-1.1-1.4-1.9-2.9-2.4-4.7c-0.5-1.7-0.8-3.6-0.8-5.6
									c0-4.2,1-7.6,3.1-10.2c2.1-2.6,4.8-3.9,8-3.9c1.2,0,2.2,0.1,3.2,0.4c0.9,0.3,1.6,0.6,1.8,0.9c0.1,0.1,0.2,0.3,0.2,0.6
									c0,0.3,0.1,0.6,0.1,1.1l0.1,4.1c0,0.3,0,0.6-0.1,0.7c-0.1,0.1-0.2,0.2-0.5,0.2c-0.5,0-0.9-0.6-1.3-1.9
									c-0.1-0.3-0.2-0.6-0.3-0.8c-0.5-1.5-1.1-2.6-1.7-3.1c-0.6-0.6-1.3-0.9-2.2-0.9c-1.9,0-3.3,1-4.4,3.1
									c-1.1,2.1-1.6,4.9-1.6,8.5c0,4.4,0.6,7.9,1.7,10.4c1.1,2.6,2.6,3.8,4.5,3.8c1,0,1.8-0.4,2.6-1.2c0.8-0.8,1.3-1.8,1.6-3.2
									c0.1-0.5,0.2-1.1,0.4-1.9c0.3-1.5,0.7-2.3,1.1-2.3c0.2,0,0.4,0.1,0.5,0.3c0.1,0.2,0.1,0.6,0.1,1.3V78z"/>
								<path class="st1" d="M408.3,79.5c-0.1,0.4-0.1,0.7-0.2,1.1c0,0.4-0.1,0.7-0.1,1.1c0,0.4,0.1,0.8,0.3,1
									c0.2,0.2,0.5,0.4,1,0.6c0.2,0.1,0.5,0.1,0.8,0.1c0.5,0.1,0.8,0.3,0.8,0.5c0,0.2-0.1,0.3-0.2,0.3c-0.1,0.1-0.3,0.1-0.5,0.1
									c-0.1,0-0.2,0-0.4,0c-0.8,0-1.7-0.1-2.4-0.1c-0.2,0-0.5,0-0.9,0c-0.5,0-0.8,0-1.1,0h-0.5c-0.5,0-0.9,0-1-0.1
									c-0.1-0.1-0.2-0.2-0.2-0.4c0-0.3,0.2-0.4,0.7-0.5c0.3-0.1,0.5-0.1,0.6-0.1c0.3-0.1,0.6-0.4,0.8-0.8c0.2-0.4,0.5-1,0.7-1.8
									l6.6-22.7c0-0.1,0-0.1,0.1-0.3c0.2-0.7,0.5-1,0.7-1c0.2,0,0.4,0.1,0.5,0.2c0.1,0.1,0.2,0.4,0.3,0.8l6.4,21.5
									c0.1,0.2,0.1,0.5,0.3,0.8c0.6,1.9,1.1,3,1.5,3.2c0.2,0.1,0.5,0.2,0.9,0.3c0.4,0.1,0.6,0.3,0.6,0.5c0,0.2-0.1,0.3-0.2,0.4
									c-0.1,0.1-0.3,0.1-0.6,0.1c-0.1,0-0.3,0-0.5,0c-1.2,0-2.3-0.1-3.4-0.1c-1.1,0-2.2,0-3.3,0.1c-0.2,0-0.3,0-0.4,0
									c-0.2,0-0.4,0-0.6-0.1c-0.1-0.1-0.2-0.2-0.2-0.3c0-0.3,0.3-0.4,0.8-0.5c0.2,0,0.4-0.1,0.5-0.1c0.4-0.1,0.7-0.2,0.8-0.4
									c0.1-0.1,0.2-0.4,0.2-0.7c0-0.2,0-0.4,0-0.6c0-0.2-0.1-0.4-0.1-0.6l-1.3-5c-0.2-0.6-0.4-1-0.6-1.2c-0.3-0.2-0.7-0.2-1.3-0.2
									h-3.1c-0.8,0-1.3,0.1-1.5,0.2c-0.2,0.1-0.3,0.5-0.5,1.2L408.3,79.5z M410.7,71.2c-0.1,0.3-0.2,0.7-0.2,0.9
									c-0.1,0.3-0.1,0.5-0.1,0.7c0,0.1,0.1,0.3,0.2,0.4c0.1,0.1,0.3,0.2,0.5,0.2h3.5c0.3,0,0.5,0,0.6-0.1c0.2-0.1,0.2-0.2,0.2-0.3
									c0-0.1,0-0.3,0-0.4c0-0.1-0.1-0.3-0.1-0.4l-1.9-6.6c0,0,0,0,0-0.1c-0.2-0.7-0.3-1-0.5-1c-0.1,0-0.2,0.1-0.3,0.2
									c-0.1,0.1-0.2,0.5-0.3,1L410.7,71.2z"/>
								<path class="st1" d="M426.8,60.4c0-0.7-0.1-1.1-0.3-1.4c-0.2-0.3-0.6-0.5-1.1-0.7c-0.4,0-0.7,0-0.8-0.1
									c-0.1-0.1-0.2-0.3-0.2-0.5c0-0.2,0.1-0.3,0.3-0.4c0.2-0.1,0.4-0.1,0.8-0.1c0.1,0,0.4,0,0.8,0c0.4,0,0.8,0,1,0
									c0.2,0,0.9,0,2.1,0c1.2,0,2.4,0,3.4,0c2.9,0,5,0.6,6.5,1.9c1.4,1.3,2.2,3.1,2.2,5.6c0,2.3-0.7,4.1-2,5.6
									c-1.3,1.5-3,2.2-4.9,2.2c-0.6,0-1.3-0.1-2-0.3c-0.7-0.2-1-0.3-1-0.3c-0.2,0-0.3,0.1-0.4,0.2c-0.1,0.1-0.1,0.4-0.1,0.8v0.3
									v7.8c0,0.7,0.1,1.2,0.2,1.5c0.1,0.3,0.3,0.5,0.6,0.6c0.1,0,0.3,0,0.5,0c0.8,0.1,1.2,0.3,1.2,0.7c0,0.1-0.1,0.2-0.2,0.3
									c-0.1,0.1-0.3,0.1-0.6,0.1c-0.1,0-0.2,0-0.5,0c-1,0-2-0.1-2.9-0.1c-0.6,0-1.3,0-2.2,0c-0.8,0-1.3,0-1.5,0
									c-0.5,0-0.9,0-1-0.1c-0.1-0.1-0.2-0.2-0.2-0.4c0-0.2,0.2-0.4,0.6-0.5c0.3-0.1,0.5-0.1,0.6-0.2c0.5-0.1,0.8-0.3,1-0.6
									c0.2-0.3,0.3-0.8,0.3-1.7V60.4z M431,68.4c0,1.1,0.1,1.9,0.4,2.2c0.3,0.3,0.8,0.5,1.5,0.5c1.3,0,2.3-0.6,3.1-1.8
									c0.8-1.2,1.2-2.9,1.2-4.9c0-1.9-0.4-3.4-1.2-4.5c-0.8-1.1-1.9-1.6-3.3-1.6c-0.6,0-1.1,0.1-1.3,0.3c-0.2,0.2-0.3,0.7-0.3,1.6
									V68.4z"/>
								<path class="st1" d="M443.2,79.5c-0.1,0.4-0.1,0.7-0.2,1.1c0,0.4-0.1,0.7-0.1,1.1c0,0.4,0.1,0.8,0.3,1
									c0.2,0.2,0.5,0.4,1,0.6c0.2,0.1,0.5,0.1,0.8,0.1c0.5,0.1,0.8,0.3,0.8,0.5c0,0.2-0.1,0.3-0.2,0.3c-0.1,0.1-0.3,0.1-0.5,0.1
									c-0.1,0-0.2,0-0.4,0c-0.8,0-1.7-0.1-2.4-0.1c-0.2,0-0.5,0-0.9,0c-0.5,0-0.8,0-1.1,0h-0.5c-0.5,0-0.9,0-1-0.1
									c-0.1-0.1-0.2-0.2-0.2-0.4c0-0.3,0.2-0.4,0.7-0.5c0.3-0.1,0.5-0.1,0.6-0.1c0.3-0.1,0.6-0.4,0.8-0.8c0.2-0.4,0.5-1,0.7-1.8
									l6.6-22.7c0-0.1,0-0.1,0.1-0.3c0.2-0.7,0.5-1,0.7-1c0.2,0,0.4,0.1,0.5,0.2c0.1,0.1,0.2,0.4,0.3,0.8l6.4,21.5
									c0.1,0.2,0.1,0.5,0.3,0.8c0.6,1.9,1.1,3,1.5,3.2c0.2,0.1,0.5,0.2,0.9,0.3c0.4,0.1,0.6,0.3,0.6,0.5c0,0.2-0.1,0.3-0.2,0.4
									c-0.1,0.1-0.3,0.1-0.6,0.1c-0.1,0-0.3,0-0.5,0c-1.2,0-2.3-0.1-3.4-0.1c-1.1,0-2.2,0-3.3,0.1c-0.2,0-0.3,0-0.4,0
									c-0.2,0-0.4,0-0.6-0.1c-0.1-0.1-0.2-0.2-0.2-0.3c0-0.3,0.3-0.4,0.8-0.5c0.2,0,0.4-0.1,0.5-0.1c0.4-0.1,0.7-0.2,0.8-0.4
									c0.1-0.1,0.2-0.4,0.2-0.7c0-0.2,0-0.4,0-0.6c0-0.2-0.1-0.4-0.1-0.6l-1.3-5c-0.2-0.6-0.4-1-0.6-1.2c-0.3-0.2-0.7-0.2-1.3-0.2
									h-3.1c-0.8,0-1.3,0.1-1.5,0.2c-0.2,0.1-0.3,0.5-0.5,1.2L443.2,79.5z M445.5,71.2c-0.1,0.3-0.2,0.7-0.2,0.9
									c-0.1,0.3-0.1,0.5-0.1,0.7c0,0.1,0.1,0.3,0.2,0.4c0.1,0.1,0.3,0.2,0.5,0.2h3.5c0.3,0,0.5,0,0.6-0.1c0.2-0.1,0.2-0.2,0.2-0.3
									c0-0.1,0-0.3,0-0.4c0-0.1-0.1-0.3-0.1-0.4l-1.9-6.6c0,0,0,0,0-0.1c-0.2-0.7-0.3-1-0.5-1c-0.1,0-0.2,0.1-0.3,0.2
									c-0.1,0.1-0.2,0.5-0.3,1L445.5,71.2z"/>
								<path class="st1" d="M476.4,78l0,3.5V82c0,0.3,0,0.6-0.1,0.7c0,0.2-0.1,0.3-0.2,0.4c-0.4,0.5-1.2,1-2.3,1.3
									c-1.1,0.4-2.3,0.6-3.6,0.6c-1.5,0-2.9-0.3-4.1-1c-1.2-0.7-2.4-1.7-3.4-3c-1.1-1.4-1.9-2.9-2.4-4.7c-0.5-1.7-0.8-3.6-0.8-5.6
									c0-4.2,1-7.6,3.1-10.2c2.1-2.6,4.8-3.9,8.1-3.9c1.2,0,2.2,0.1,3.2,0.4c0.9,0.3,1.6,0.6,1.8,0.9c0.1,0.1,0.2,0.3,0.2,0.6
									c0.1,0.3,0.1,0.6,0.1,1.1l0.1,4.1c0,0.3,0,0.6-0.1,0.7c-0.1,0.1-0.3,0.2-0.5,0.2c-0.5,0-0.9-0.6-1.3-1.9
									c-0.1-0.3-0.2-0.6-0.3-0.8c-0.5-1.5-1.1-2.6-1.7-3.1c-0.6-0.6-1.3-0.9-2.2-0.9c-1.9,0-3.3,1-4.4,3.1
									c-1.1,2.1-1.6,4.9-1.6,8.5c0,4.4,0.6,7.9,1.7,10.4c1.1,2.6,2.6,3.8,4.5,3.8c1,0,1.8-0.4,2.6-1.2c0.8-0.8,1.3-1.8,1.6-3.2
									c0.1-0.5,0.2-1.1,0.4-1.9c0.3-1.5,0.7-2.3,1.1-2.3c0.2,0,0.4,0.1,0.5,0.3c0.1,0.2,0.1,0.6,0.1,1.3V78z"/>
								<path class="st1" d="M485.6,81.1c0,0.7,0.1,1.2,0.2,1.5c0.1,0.3,0.3,0.4,0.6,0.6c0.1,0,0.3,0,0.5,0.1
									c0.7,0.1,1.1,0.3,1.1,0.7c0,0.1-0.1,0.2-0.2,0.3c-0.1,0.1-0.3,0.1-0.6,0.1c-0.1,0-0.2,0-0.5,0c-1,0-2-0.1-2.9-0.1
									c-0.6,0-1.3,0-2.2,0c-0.8,0-1.3,0-1.5,0c-0.6,0-0.9,0-1-0.1c-0.1-0.1-0.2-0.2-0.2-0.4c0-0.2,0.2-0.4,0.6-0.5
									c0.3-0.1,0.5-0.2,0.6-0.3c0.5-0.1,0.8-0.3,1-0.6c0.2-0.3,0.3-0.8,0.3-1.7V60.4c0-0.7-0.1-1.1-0.2-1.4
									c-0.1-0.2-0.3-0.4-0.6-0.5c-0.1,0-0.4-0.1-0.7-0.1c-0.7-0.1-1-0.3-1-0.7c0-0.2,0.1-0.3,0.2-0.4c0.1-0.1,0.4-0.1,0.7-0.1
									c0,0,0.2,0,0.4,0c1.1,0,2.2,0.1,3.2,0.1c0.4,0,1,0,1.8,0c0.8,0,1.4,0,1.7,0c0.4,0,0.7,0,0.9,0.1c0.2,0.1,0.3,0.2,0.3,0.4
									c0,0.3-0.3,0.5-1,0.7c-0.2,0-0.3,0.1-0.3,0.1c-0.5,0-0.9,0.2-1,0.3c-0.2,0.2-0.2,0.7-0.2,1.5V81.1z"/>
								<path class="st1" d="M503.7,57.3c0.9,0,1.7-0.2,2.2-0.7c0.6-0.5,0.9-0.7,1-0.7c0.2,0,0.3,0,0.4,0.1c0.1,0.1,0.1,0.2,0.1,0.4
									c0,0.6-0.1,1.6-0.2,3.2c-0.1,1.5-0.2,2.8-0.2,3.8c0,0.5,0,0.8-0.1,1c-0.1,0.2-0.3,0.2-0.5,0.2c-0.4,0-0.7-0.6-1-1.9
									c-0.1-0.4-0.1-0.7-0.2-1c-0.2-1.1-0.6-2-1.2-2.5c-0.5-0.5-1.3-0.7-2.3-0.7c-0.4,0-0.6,0.1-0.7,0.2c-0.1,0.1-0.2,0.5-0.2,1.1
									V81c0,0.7,0.1,1.2,0.2,1.5c0.1,0.3,0.3,0.5,0.6,0.6c0.1,0,0.3,0.1,0.5,0.1c0.8,0.1,1.2,0.3,1.2,0.7c0,0.2-0.1,0.3-0.2,0.4
									c-0.2,0.1-0.4,0.1-0.6,0.1c-0.1,0-0.2,0-0.5,0c-1,0-2-0.1-2.9-0.1c-0.6,0-1.3,0-2.2,0c-0.8,0-1.3,0-1.5,0
									c-0.5,0-0.8,0-1-0.1c-0.2-0.1-0.3-0.3-0.3-0.5c0-0.2,0.2-0.4,0.6-0.5c0.3-0.1,0.5-0.1,0.6-0.2c0.5-0.1,0.8-0.3,1-0.6
									c0.2-0.3,0.3-0.8,0.3-1.7V59.2c0-0.3,0-0.5-0.1-0.6c-0.1-0.1-0.3-0.1-0.6-0.1c-0.9,0-1.6,0.3-2.2,0.8
									c-0.6,0.5-1.3,1.5-2,2.9c-0.2,0.3-0.4,0.7-0.6,1.3c-0.4,0.8-0.7,1.2-0.9,1.2c-0.1,0-0.2,0-0.3-0.1c-0.1-0.1-0.1-0.2-0.1-0.3
									c0-0.2,0.1-0.8,0.2-1.9c0.1-1.1,0.3-2.2,0.5-3.5c0-0.2,0.1-0.4,0.1-0.7c0.2-1.5,0.5-2.2,0.9-2.2c0.3,0,0.5,0.2,0.7,0.5
									c0.1,0.1,0.1,0.2,0.1,0.3c0.2,0.2,0.4,0.4,0.7,0.5c0.3,0.1,0.7,0.2,1.3,0.2H503.7z"/>
								<path class="st1" d="M509.6,79.5c-0.1,0.4-0.2,0.7-0.2,1.1c-0.1,0.4-0.1,0.7-0.1,1.1c0,0.4,0.1,0.8,0.3,1
									c0.2,0.2,0.6,0.4,1,0.6c0.2,0.1,0.5,0.1,0.8,0.1c0.5,0.1,0.8,0.3,0.8,0.5c0,0.2-0.1,0.3-0.2,0.3c-0.1,0.1-0.3,0.1-0.5,0.1
									c-0.1,0-0.2,0-0.4,0c-0.8,0-1.7-0.1-2.5-0.1c-0.2,0-0.5,0-0.9,0c-0.4,0-0.8,0-1.1,0h-0.5c-0.5,0-0.9,0-1-0.1
									c-0.1-0.1-0.2-0.2-0.2-0.4c0-0.3,0.2-0.4,0.7-0.5c0.3-0.1,0.5-0.1,0.6-0.1c0.3-0.1,0.6-0.4,0.8-0.8c0.2-0.4,0.5-1,0.7-1.8
									l6.6-22.7c0-0.1,0-0.1,0.1-0.3c0.2-0.7,0.5-1,0.7-1c0.2,0,0.4,0.1,0.5,0.2c0.1,0.1,0.2,0.4,0.3,0.8l6.4,21.5
									c0.1,0.2,0.1,0.5,0.2,0.8c0.6,1.9,1.1,3,1.5,3.2c0.2,0.1,0.5,0.2,0.9,0.3c0.4,0.1,0.6,0.3,0.6,0.5c0,0.2-0.1,0.3-0.2,0.4
									c-0.1,0.1-0.3,0.1-0.6,0.1c-0.1,0-0.3,0-0.5,0c-1.2,0-2.3-0.1-3.4-0.1c-1.1,0-2.2,0-3.3,0.1c-0.2,0-0.3,0-0.4,0
									c-0.2,0-0.4,0-0.6-0.1c-0.1-0.1-0.2-0.2-0.2-0.3c0-0.3,0.3-0.4,0.8-0.5c0.2,0,0.4-0.1,0.5-0.1c0.4-0.1,0.7-0.2,0.8-0.4
									c0.1-0.1,0.2-0.4,0.2-0.7c0-0.2,0-0.4,0-0.6c0-0.2-0.1-0.4-0.1-0.6l-1.3-5c-0.2-0.6-0.4-1-0.6-1.2c-0.3-0.2-0.7-0.2-1.3-0.2
									h-3.1c-0.8,0-1.3,0.1-1.5,0.2c-0.2,0.1-0.3,0.5-0.5,1.2L509.6,79.5z M511.9,71.2c-0.1,0.3-0.2,0.7-0.2,0.9
									c-0.1,0.3-0.1,0.5-0.1,0.7c0,0.1,0.1,0.3,0.2,0.4c0.1,0.1,0.3,0.2,0.5,0.2h3.5c0.3,0,0.5,0,0.6-0.1c0.2-0.1,0.2-0.2,0.2-0.3
									c0-0.1,0-0.3,0-0.4c0-0.1-0.1-0.3-0.1-0.4l-1.9-6.6c0,0,0,0,0-0.1c-0.2-0.7-0.3-1-0.5-1c-0.1,0-0.2,0.1-0.3,0.2
									c-0.1,0.1-0.2,0.5-0.3,1L511.9,71.2z"/>
								<path class="st1" d="M542.7,78l0,3.5V82c0,0.3,0,0.6-0.1,0.7c0,0.2-0.1,0.3-0.2,0.4c-0.4,0.5-1.2,1-2.3,1.3
									c-1.1,0.4-2.3,0.6-3.6,0.6c-1.5,0-2.9-0.3-4.1-1c-1.2-0.7-2.4-1.7-3.4-3c-1.1-1.4-1.9-2.9-2.4-4.7c-0.5-1.7-0.8-3.6-0.8-5.6
									c0-4.2,1-7.6,3.1-10.2c2.1-2.6,4.8-3.9,8-3.9c1.2,0,2.2,0.1,3.2,0.4c1,0.3,1.6,0.6,1.8,0.9c0.1,0.1,0.2,0.3,0.2,0.6
									c0,0.3,0.1,0.6,0.1,1.1l0.1,4.1c0,0.3,0,0.6-0.1,0.7c-0.1,0.1-0.3,0.2-0.5,0.2c-0.5,0-0.9-0.6-1.3-1.9
									c-0.1-0.3-0.2-0.6-0.3-0.8c-0.5-1.5-1.1-2.6-1.7-3.1c-0.6-0.6-1.3-0.9-2.2-0.9c-1.9,0-3.3,1-4.4,3.1
									c-1.1,2.1-1.6,4.9-1.6,8.5c0,4.4,0.6,7.9,1.7,10.4c1.1,2.6,2.6,3.8,4.5,3.8c1,0,1.8-0.4,2.6-1.2c0.8-0.8,1.3-1.8,1.6-3.2
									c0.1-0.5,0.2-1.1,0.4-1.9c0.3-1.5,0.7-2.3,1.1-2.3c0.2,0,0.4,0.1,0.5,0.3c0.1,0.2,0.1,0.6,0.1,1.3V78z"/>
								<path class="st1" d="M551.9,81.1c0,0.7,0.1,1.2,0.2,1.5c0.1,0.3,0.3,0.4,0.6,0.6c0.1,0,0.3,0,0.5,0.1
									c0.7,0.1,1.1,0.3,1.1,0.7c0,0.1-0.1,0.2-0.2,0.3c-0.1,0.1-0.3,0.1-0.6,0.1c-0.1,0-0.2,0-0.5,0c-1,0-2-0.1-2.9-0.1
									c-0.6,0-1.3,0-2.2,0c-0.8,0-1.3,0-1.5,0c-0.6,0-0.9,0-1-0.1c-0.1-0.1-0.2-0.2-0.2-0.4c0-0.2,0.2-0.4,0.6-0.5
									c0.3-0.1,0.5-0.2,0.6-0.3c0.5-0.1,0.8-0.3,1-0.6c0.2-0.3,0.3-0.8,0.3-1.7V60.4c0-0.7-0.1-1.1-0.2-1.4
									c-0.1-0.2-0.3-0.4-0.6-0.5c-0.1,0-0.4-0.1-0.7-0.1c-0.7-0.1-1-0.3-1-0.7c0-0.2,0.1-0.3,0.2-0.4c0.1-0.1,0.4-0.1,0.7-0.1
									c0,0,0.2,0,0.4,0c1.1,0,2.2,0.1,3.2,0.1c0.4,0,1.1,0,1.9,0c0.8,0,1.4,0,1.7,0c0.4,0,0.7,0,0.9,0.1c0.2,0.1,0.3,0.2,0.3,0.4
									c0,0.3-0.3,0.5-1,0.7c-0.2,0-0.3,0.1-0.3,0.1c-0.5,0-0.9,0.2-1,0.3c-0.2,0.2-0.2,0.7-0.2,1.5V81.1z"/>
								<path class="st1" d="M556.8,71c0-1.8,0.2-3.6,0.7-5.3c0.5-1.7,1.2-3.2,2-4.5c1-1.4,2.2-2.5,3.5-3.3c1.3-0.8,2.7-1.2,4-1.2
									c1.2,0,2.4,0.3,3.5,0.8c1.2,0.6,2.2,1.4,3.2,2.4c1.3,1.4,2.2,3,2.9,4.9c0.7,1.9,1,3.9,1,6.1c0,4-1,7.4-3,10.1
									c-2,2.7-4.4,4.1-7.3,4.1c-1.2,0-2.4-0.3-3.5-0.8c-1.1-0.6-2.2-1.4-3.2-2.4c-1.3-1.3-2.3-2.9-2.9-4.8
									C557.2,75.1,556.8,73.1,556.8,71z M566.8,57.8c-1.6,0-2.8,1.1-3.9,3.4c-1,2.3-1.5,5.3-1.5,9c0,3.9,0.6,7.2,1.9,9.7
									c1.2,2.6,2.7,3.9,4.4,3.9c1.6,0,2.9-1.1,3.9-3.4c1-2.3,1.5-5.3,1.5-9.1c0-3.9-0.6-7.1-1.8-9.7
									C570,59.1,568.5,57.8,566.8,57.8z M563.7,54.5l5.8-6.1c0.4-0.4,0.8-0.7,1-0.9c0.3-0.2,0.6-0.3,0.9-0.3
									c0.5,0,0.8,0.1,1.1,0.4c0.3,0.3,0.4,0.6,0.4,1c0,0.3-0.1,0.6-0.3,0.9c-0.2,0.3-0.5,0.5-0.9,0.8l-6.6,4.2H563.7z"/>
								<path class="st1" d="M597.3,83.2c0,0.7,0,1.1-0.1,1.3c-0.1,0.2-0.2,0.2-0.5,0.2c-0.2,0-0.3-0.1-0.5-0.2
									c-0.2-0.1-0.3-0.3-0.4-0.5L585,64.8c-0.3-0.5-0.6-1-0.8-1.3c-0.2-0.3-0.4-0.5-0.5-0.5c-0.1,0-0.1,0-0.2,0.1
									c0,0.1-0.1,0.3-0.1,0.6l0.1,17c0,0.6,0.1,1,0.3,1.4c0.2,0.4,0.4,0.6,0.8,0.7c0.2,0.1,0.5,0.1,0.8,0.1
									c0.8,0.1,1.2,0.4,1.2,0.7c0,0.2-0.1,0.4-0.3,0.4c-0.2,0.1-0.6,0.1-1.2,0.1c-0.1,0-0.2,0-0.4,0c-0.9,0-1.7-0.1-2.6-0.1
									c-0.2,0-0.4,0-0.8,0c-0.3,0-0.6,0-0.8,0c-0.4,0-0.7,0-0.9-0.1c-0.1-0.1-0.2-0.2-0.2-0.4c0-0.4,0.4-0.7,1.2-0.8
									c0.1,0,0.2,0,0.3-0.1c0.5-0.1,0.8-0.2,1-0.4c0.1-0.2,0.2-0.7,0.2-1.5l0-21.1c0-0.5-0.1-0.8-0.2-1.1
									c-0.1-0.2-0.3-0.3-0.6-0.4c-0.1,0-0.4-0.1-0.6-0.1c-0.7-0.2-1-0.4-1-0.7c0-0.2,0.1-0.3,0.3-0.3c0.2-0.1,0.5-0.1,0.9-0.1h1
									h2.8c0.5,0,0.9,0.3,1.2,0.9c0.1,0.2,0.2,0.4,0.3,0.5l8.2,15.1c0.3,0.5,0.6,0.9,0.8,1.2c0.3,0.3,0.5,0.5,0.6,0.5
									c0.1,0,0.2,0,0.2-0.1c0-0.1,0.1-0.3,0.1-0.6L595.9,61c0-0.7-0.1-1.2-0.2-1.5c-0.2-0.3-0.4-0.6-0.8-0.7
									c-0.2,0-0.4-0.1-0.8-0.1c-0.9-0.1-1.3-0.3-1.3-0.7c0-0.3,0.1-0.4,0.4-0.6c0.3-0.1,0.7-0.2,1.2-0.2c0.1,0,0.2,0,0.4,0
									c0.9,0,1.7,0.1,2.5,0.1c0.2,0,0.4,0,0.8,0c0.3,0,0.6,0,0.8,0c0.3,0,0.6,0.1,0.8,0.2c0.2,0.1,0.3,0.3,0.3,0.5
									c0,0.5-0.4,0.8-1.3,0.8c-0.1,0-0.1,0-0.2,0c-0.5,0.1-0.9,0.3-1,0.5c-0.1,0.2-0.2,0.7-0.2,1.5V83.2z"/>
								<path class="st1" d="M402.8,100.5v5.9c0,0.3,0,0.6-0.1,0.6c-0.1,0.1-0.2,0.1-0.3,0.1c-0.3,0-0.6-0.4-0.9-1.2
									c-0.2-0.6-0.4-1-0.6-1.4c-0.5-1.1-1.2-1.8-1.9-2.2c-0.8-0.4-1.8-0.7-3.2-0.7c-1,0-1.7,0.1-2,0.3c-0.3,0.2-0.5,0.7-0.5,1.4v8
									c0,0.3,0.1,0.4,0.3,0.5c0.2,0.1,0.5,0.2,0.9,0.2h1.1c0.9,0,1.6-0.1,2.1-0.3c0.5-0.2,0.9-0.5,1.2-1c0.2-0.3,0.4-0.7,0.6-1.4
									c0.2-0.6,0.4-1,0.7-1c0.2,0,0.3,0,0.3,0.1c0.1,0.1,0.1,0.3,0.1,0.7v7c0,0.5,0,0.8-0.1,1c-0.1,0.2-0.2,0.3-0.4,0.3
									c-0.3,0-0.6-0.4-0.8-1.2c-0.1-0.5-0.3-1-0.4-1.2c-0.3-0.7-0.7-1.1-1.1-1.3c-0.4-0.2-1.2-0.3-2.4-0.3h-1.2
									c-0.3,0-0.5,0.1-0.7,0.2c-0.1,0.2-0.2,0.5-0.2,0.9v6.9c0,1.9,0.2,3.2,0.7,3.9c0.5,0.7,1.3,1.1,2.6,1.1
									c1.4,0,2.6-0.3,3.4-0.9c0.8-0.6,1.5-1.6,1.9-3c0.1-0.3,0.2-0.8,0.3-1.3c0.2-0.9,0.5-1.4,0.9-1.4c0.2,0,0.4,0,0.4,0.1
									c0.1,0.1,0.1,0.3,0.1,0.7v5.9c0,0.6-0.1,0.9-0.2,1c-0.1,0.1-0.5,0.2-1.1,0.2c-0.9,0-2.3,0-4.2-0.1c-1.9,0-3.4-0.1-4.5-0.1
									h-6c-0.5,0-0.9,0-1-0.1c-0.1-0.1-0.2-0.2-0.2-0.4c0-0.2,0.2-0.4,0.6-0.5c0.3-0.1,0.5-0.2,0.6-0.3c0.5-0.1,0.8-0.3,1-0.6
									c0.2-0.3,0.3-0.8,0.3-1.7v-20.5c0-0.7-0.1-1.1-0.2-1.4c-0.1-0.2-0.3-0.4-0.6-0.6c-0.1,0-0.4-0.1-0.7-0.1
									c-0.7-0.1-1.1-0.3-1.1-0.7c0-0.1,0.1-0.2,0.2-0.3c0.1-0.1,0.4-0.1,0.7-0.1h7.1c1.8,0,3.3,0,4.5,0
									C400.3,100.5,401.6,100.5,402.8,100.5z"/>
								<path class="st1" d="M409.2,103.4v-0.2c0-0.4-0.1-0.7-0.2-0.9c-0.1-0.2-0.4-0.4-0.7-0.4c-0.2,0-0.4-0.1-0.7-0.1
									c-0.8-0.1-1.2-0.3-1.2-0.7c0-0.2,0.1-0.4,0.4-0.5c0.3-0.1,0.6-0.1,1.1-0.1h1.9h2.8c0.5,0,0.8,0.2,1,0.6v0l5,15.1
									c0.2,0.7,0.4,1.2,0.6,1.4c0.1,0.2,0.3,0.4,0.4,0.4c0.2,0,0.3-0.3,0.5-0.8l0,0l4.8-15.1c0.2-0.7,0.4-1.1,0.7-1.3
									c0.2-0.2,0.6-0.3,1-0.3h1.9h2.8c0.4,0,0.7,0,0.8,0.1c0.1,0.1,0.2,0.2,0.2,0.3c0,0.3-0.4,0.6-1.1,0.7c-0.1,0-0.2,0-0.3,0
									c-0.5,0.1-0.8,0.2-0.9,0.4c-0.1,0.2-0.2,0.5-0.2,1v0.3l0.5,20.8c0,0.6,0.1,1,0.2,1.4c0.1,0.3,0.3,0.6,0.5,0.8
									c0.2,0.1,0.5,0.2,1,0.3c0.5,0.1,0.8,0.3,0.8,0.5c0,0.2-0.1,0.3-0.2,0.4c-0.1,0.1-0.5,0.1-1,0.1c-0.3,0-0.8,0-1.4,0
									c-0.6,0-1.1,0-1.4,0c-0.8,0-1.7,0-2.8,0c-1.1,0-1.8,0-2,0h-0.4c-0.3,0-0.5,0-0.6-0.1c-0.1,0-0.1-0.1-0.1-0.2
									c0-0.3,0.3-0.6,1-0.8c0.1-0.1,0.2-0.1,0.3-0.1c0.8-0.1,1.3-0.2,1.5-0.4c0.2-0.2,0.3-0.7,0.3-1.4v-0.3l-0.2-15.9
									c0-0.7,0-1.3-0.1-1.6c-0.1-0.4-0.2-0.5-0.4-0.5c-0.1,0-0.2,0.1-0.3,0.3c-0.1,0.2-0.2,0.5-0.3,0.8l-5.3,17.4l-0.1,0.3
									c-0.5,1.6-0.9,2.4-1.2,2.4c-0.3,0-0.7-0.9-1.2-2.8c0-0.1,0-0.2-0.1-0.2l-5-16.6c-0.1-0.3-0.2-0.6-0.4-0.8
									c-0.2-0.2-0.3-0.3-0.4-0.3c-0.2,0-0.3,0.1-0.4,0.4c-0.1,0.2-0.1,0.6-0.1,1.1l-0.3,16.1v0.2c0,0.7,0.1,1.2,0.4,1.5
									c0.2,0.3,0.6,0.5,1.1,0.5h0.3c0.3,0,0.5,0.1,0.6,0.2c0.2,0.1,0.2,0.3,0.2,0.5c0,0.2-0.1,0.4-0.2,0.5
									c-0.1,0.1-0.4,0.1-0.9,0.1c-0.1,0-0.2,0-0.4,0c-0.9,0-1.8-0.1-2.7-0.1c-0.4,0-0.8,0-1.3,0c-0.5,0-0.8,0-0.9,0
									c-0.2,0-0.4,0-0.5-0.1c-0.1-0.1-0.2-0.2-0.2-0.4c0-0.4,0.3-0.7,1-0.7c0.2,0,0.3,0,0.4,0c0.5-0.2,0.8-0.4,1-0.7
									c0.2-0.3,0.3-0.8,0.3-1.6L409.2,103.4z"/>
								<path class="st1" d="M437.1,103.6c0-0.7-0.1-1.1-0.3-1.4c-0.2-0.3-0.6-0.5-1.1-0.7c-0.4,0-0.7,0-0.8-0.1
									c-0.1-0.1-0.2-0.2-0.2-0.5c0-0.2,0.1-0.3,0.3-0.4c0.2-0.1,0.4-0.1,0.8-0.1c0.1,0,0.4,0,0.8,0c0.4,0,0.8,0,1,0
									c0.2,0,0.9,0,2.1,0c1.2,0,2.4,0,3.4,0c2.9,0,5,0.6,6.5,1.9c1.4,1.3,2.2,3.1,2.2,5.6c0,2.3-0.7,4.1-2,5.6
									c-1.3,1.5-3,2.2-4.9,2.2c-0.6,0-1.3-0.1-2-0.3c-0.7-0.2-1-0.3-1-0.3c-0.2,0-0.3,0.1-0.4,0.2c-0.1,0.1-0.1,0.4-0.1,0.8v0.3
									v7.8c0,0.7,0.1,1.2,0.2,1.5c0.1,0.3,0.3,0.5,0.6,0.6c0.1,0,0.3,0,0.5,0c0.8,0.1,1.2,0.3,1.2,0.7c0,0.1-0.1,0.2-0.2,0.3
									c-0.1,0.1-0.3,0.1-0.6,0.1c-0.1,0-0.2,0-0.5,0c-1,0-2-0.1-2.9-0.1c-0.6,0-1.3,0-2.2,0c-0.8,0-1.3,0-1.5,0
									c-0.5,0-0.9,0-1-0.1c-0.1-0.1-0.2-0.2-0.2-0.4c0-0.2,0.2-0.4,0.6-0.5c0.3-0.1,0.5-0.1,0.6-0.2c0.5-0.1,0.8-0.3,1-0.6
									c0.2-0.3,0.3-0.8,0.3-1.7V103.6z M441.3,111.6c0,1.1,0.1,1.9,0.4,2.2c0.3,0.3,0.8,0.5,1.5,0.5c1.3,0,2.3-0.6,3.1-1.8
									c0.8-1.2,1.2-2.8,1.2-4.9c0-1.9-0.4-3.4-1.2-4.5c-0.8-1.1-1.9-1.6-3.3-1.6c-0.7,0-1.1,0.1-1.3,0.3c-0.2,0.2-0.3,0.7-0.3,1.6
									V111.6z"/>
								<path class="st1" d="M456.7,103.6c0-0.6-0.1-1.1-0.2-1.4c-0.1-0.3-0.3-0.5-0.6-0.6c-0.1,0-0.3,0-0.5,0
									c-0.8,0-1.2-0.2-1.2-0.6c0-0.2,0.1-0.3,0.2-0.4c0.1-0.1,0.4-0.1,0.6-0.1c0,0,0.3,0,0.8,0.1c0.5,0,0.9,0.1,1.4,0.1
									c0.4,0,1.2,0,2.5-0.1c1.3,0,2.4-0.1,3.2-0.1c3.4,0,5.9,0.5,7.4,1.6c1.6,1.1,2.3,2.7,2.3,5c0,1.6-0.5,2.9-1.5,4
									c-1,1.1-2.5,2-4.7,2.8c0.8,0.2,1.5,1,2,2.1c0,0.1,0.1,0.1,0.1,0.2l3.5,7.7c0.3,0.6,0.6,1.2,1,1.6c0.4,0.5,0.7,0.8,1,1
									c0.1,0.1,0.4,0.1,0.7,0.2c0.5,0.1,0.7,0.3,0.7,0.5c0,0.2-0.1,0.3-0.2,0.4c-0.1,0.1-0.3,0.1-0.6,0.1c-0.5,0-1.1,0-1.8,0
									c-0.8,0-1.3,0-1.7,0c-0.4,0-0.8,0-1.2,0c-0.4,0-0.6,0-0.7,0c-0.3,0-0.5-0.2-0.6-0.5c0-0.1-0.1-0.2-0.1-0.2l-4.4-10.1
									c-0.5-1.1-0.9-1.8-1.2-2c-0.3-0.3-0.8-0.4-1.4-0.4c-0.2,0-0.3,0-0.5,0c-0.1,0-0.3,0.1-0.4,0.1v9.9c0,0.7,0.1,1.2,0.2,1.5
									c0.1,0.3,0.4,0.5,0.7,0.6c0.2,0,0.5,0.1,0.9,0.1c0.7,0.1,1,0.3,1,0.6c0,0.2-0.1,0.3-0.2,0.3c-0.1,0.1-0.4,0.1-0.7,0.1
									c-0.1,0-0.5,0-1.3,0c-0.8,0-1.4,0-2.1,0c-0.7,0-1.6,0-2.4,0c-0.9,0-1.4,0-1.5,0c-0.6,0-0.9,0-1-0.1
									c-0.1-0.1-0.2-0.2-0.2-0.4c0-0.2,0.2-0.4,0.6-0.5c0.3-0.1,0.5-0.2,0.6-0.3c0.5-0.1,0.8-0.3,1-0.6c0.2-0.3,0.3-0.8,0.3-1.7
									V103.6z M460.9,103.5v7.1c0,1.1,0.1,1.8,0.3,2c0.2,0.3,0.6,0.4,1.2,0.4c1.8,0,3.2-0.5,4.1-1.6c1-1.1,1.5-2.6,1.5-4.5
									c0-1.7-0.4-3.1-1.3-4c-0.9-0.9-2.1-1.4-3.7-1.4c-0.9,0-1.4,0.1-1.7,0.3C461,102.1,460.9,102.7,460.9,103.5z"/>
								<path class="st1" d="M491.8,100.5v5.9c0,0.3,0,0.6-0.1,0.6c-0.1,0.1-0.2,0.1-0.3,0.1c-0.3,0-0.6-0.4-0.9-1.2
									c-0.2-0.6-0.4-1-0.6-1.4c-0.5-1.1-1.2-1.8-1.9-2.2c-0.8-0.4-1.8-0.7-3.2-0.7c-1,0-1.7,0.1-2,0.3c-0.3,0.2-0.5,0.7-0.5,1.4v8
									c0,0.3,0.1,0.4,0.2,0.5c0.2,0.1,0.5,0.2,0.9,0.2h1.1c0.9,0,1.6-0.1,2.1-0.3c0.5-0.2,0.9-0.5,1.2-1c0.2-0.3,0.4-0.7,0.6-1.4
									c0.2-0.6,0.4-1,0.7-1c0.2,0,0.3,0,0.3,0.1c0.1,0.1,0.1,0.3,0.1,0.7v7c0,0.5,0,0.8-0.1,1c-0.1,0.2-0.2,0.3-0.4,0.3
									c-0.3,0-0.6-0.4-0.8-1.2c-0.1-0.5-0.3-1-0.4-1.2c-0.3-0.7-0.7-1.1-1.1-1.3c-0.4-0.2-1.2-0.3-2.4-0.3h-1.2
									c-0.3,0-0.5,0.1-0.7,0.2c-0.1,0.2-0.2,0.5-0.2,0.9v6.9c0,1.9,0.2,3.2,0.7,3.9c0.5,0.7,1.3,1.1,2.6,1.1
									c1.4,0,2.6-0.3,3.4-0.9c0.8-0.6,1.5-1.6,1.9-3c0.1-0.3,0.2-0.8,0.3-1.3c0.2-0.9,0.5-1.4,0.9-1.4c0.2,0,0.4,0,0.4,0.1
									c0.1,0.1,0.1,0.3,0.1,0.7v5.9c0,0.6-0.1,0.9-0.2,1c-0.1,0.1-0.5,0.2-1.1,0.2c-0.9,0-2.3,0-4.2-0.1c-1.9,0-3.4-0.1-4.5-0.1
									h-6c-0.5,0-0.9,0-1-0.1c-0.1-0.1-0.2-0.2-0.2-0.4c0-0.2,0.2-0.4,0.6-0.5c0.3-0.1,0.5-0.2,0.6-0.3c0.5-0.1,0.8-0.3,1-0.6
									c0.2-0.3,0.3-0.8,0.3-1.7v-20.5c0-0.7-0.1-1.1-0.2-1.4c-0.1-0.2-0.3-0.4-0.6-0.6c-0.1,0-0.4-0.1-0.7-0.1
									c-0.7-0.1-1.1-0.3-1.1-0.7c0-0.1,0.1-0.2,0.2-0.3c0.1-0.1,0.4-0.1,0.7-0.1h7.1c1.8,0,3.3,0,4.5,0
									C489.3,100.5,490.6,100.5,491.8,100.5z"/>
								<path class="st1" d="M496.2,124.5l0.1-3.1c0-1,0.1-1.6,0.2-1.9c0.1-0.2,0.3-0.4,0.5-0.4c0.4,0,0.7,0.5,1.1,1.6
									c0.2,0.8,0.4,1.5,0.7,2.1c0.6,1.6,1.3,2.7,2,3.4c0.7,0.7,1.6,1,2.6,1c1.2,0,2.2-0.5,3.1-1.4c0.8-0.9,1.3-2.1,1.3-3.4
									c0-2.2-1.5-4.3-4.6-6.6c-0.2-0.2-0.4-0.3-0.5-0.4c-2.7-1.9-4.4-3.4-5.1-4.6c-0.7-1.1-1.1-2.5-1.1-4c0-2.1,0.7-3.7,2.1-5
									c1.4-1.3,3.3-1.9,5.7-1.9c1,0,1.9,0.1,2.8,0.3c0.9,0.2,1.5,0.5,1.9,0.8c0.1,0.1,0.2,0.3,0.3,0.5c0,0.2,0.1,0.6,0.1,1.2
									l0,3.1v0.4c0,0.6,0,1-0.1,1.2c-0.1,0.2-0.2,0.2-0.5,0.2c-0.4,0-0.7-0.6-1.1-1.7c-0.3-0.8-0.5-1.5-0.7-2
									c-0.5-1.2-1-2-1.5-2.4c-0.5-0.4-1.2-0.6-2-0.6c-1.1,0-2,0.4-2.7,1.2c-0.7,0.8-1.1,1.8-1.1,2.9c0,1.1,0.3,2,0.8,2.9
									c0.6,0.8,1.9,2,3.9,3.5c2.6,1.9,4.3,3.5,5.1,4.7c0.8,1.2,1.2,2.6,1.2,4.1c0,2.3-0.8,4.2-2.5,5.7c-1.6,1.5-3.7,2.3-6.2,2.3
									c-2.3,0-3.9-0.2-4.7-0.7c-0.8-0.5-1.2-1.4-1.2-2.7V124.5z"/>
								<path class="st1" d="M515.3,122.7c-0.1,0.4-0.1,0.7-0.2,1.1c0,0.4-0.1,0.7-0.1,1.1c0,0.4,0.1,0.8,0.3,1
									c0.2,0.2,0.6,0.4,1,0.6c0.2,0.1,0.5,0.1,0.8,0.1c0.5,0.1,0.8,0.3,0.8,0.5c0,0.2-0.1,0.3-0.2,0.3c-0.1,0.1-0.3,0.1-0.5,0.1
									c-0.1,0-0.2,0-0.4,0c-0.8,0-1.7-0.1-2.4-0.1c-0.2,0-0.5,0-0.9,0c-0.5,0-0.8,0-1.1,0H512c-0.5,0-0.9,0-1-0.1
									c-0.1-0.1-0.2-0.2-0.2-0.4c0-0.3,0.2-0.4,0.7-0.5c0.3-0.1,0.5-0.1,0.6-0.1c0.3-0.1,0.6-0.4,0.8-0.8c0.2-0.4,0.5-1,0.7-1.8
									l6.6-22.7c0-0.1,0-0.1,0.1-0.3c0.2-0.7,0.5-1,0.7-1c0.2,0,0.4,0.1,0.5,0.2c0.1,0.1,0.2,0.4,0.3,0.8l6.4,21.5
									c0.1,0.2,0.1,0.5,0.3,0.8c0.6,1.9,1.1,3,1.5,3.2c0.2,0.1,0.5,0.2,0.9,0.3c0.4,0.1,0.6,0.3,0.6,0.5c0,0.2-0.1,0.3-0.2,0.4
									c-0.1,0.1-0.3,0.1-0.6,0.1c-0.1,0-0.3,0-0.5,0c-1.2,0-2.3-0.1-3.4-0.1c-1.1,0-2.2,0-3.3,0.1c-0.2,0-0.3,0-0.4,0
									c-0.2,0-0.4,0-0.6-0.1c-0.1-0.1-0.2-0.2-0.2-0.3c0-0.3,0.3-0.4,0.8-0.5c0.2,0,0.4-0.1,0.5-0.1c0.4-0.1,0.7-0.2,0.8-0.4
									c0.1-0.1,0.2-0.4,0.2-0.7c0-0.2,0-0.4,0-0.6c0-0.2-0.1-0.4-0.1-0.6l-1.3-5c-0.2-0.6-0.4-1-0.6-1.2c-0.3-0.2-0.7-0.2-1.3-0.2
									h-3.1c-0.8,0-1.3,0.1-1.5,0.2c-0.2,0.1-0.3,0.5-0.5,1.2L515.3,122.7z M517.7,114.4c-0.1,0.3-0.2,0.7-0.2,1
									c-0.1,0.3-0.1,0.5-0.1,0.7c0,0.1,0.1,0.3,0.2,0.4c0.1,0.1,0.3,0.2,0.5,0.2h3.5c0.3,0,0.5,0,0.6-0.1c0.2-0.1,0.2-0.2,0.2-0.3
									c0-0.1,0-0.3,0-0.4c0-0.1-0.1-0.3-0.1-0.4l-1.9-6.6c0,0,0,0,0-0.1c-0.2-0.7-0.3-1-0.5-1c-0.1,0-0.2,0.1-0.3,0.2
									c-0.1,0.1-0.2,0.5-0.3,1L517.7,114.4z"/>
								<path class="st1" d="M533.8,103.6c0-0.6,0-1.1-0.2-1.4c-0.1-0.3-0.3-0.5-0.6-0.6c-0.1,0-0.3,0-0.5,0c-0.8,0-1.2-0.2-1.2-0.6
									c0-0.2,0.1-0.3,0.2-0.4c0.1-0.1,0.4-0.1,0.6-0.1c0,0,0.3,0,0.8,0.1c0.5,0,0.9,0.1,1.4,0.1c0.4,0,1.2,0,2.5-0.1
									c1.3,0,2.4-0.1,3.2-0.1c3.4,0,5.9,0.5,7.4,1.6c1.6,1.1,2.3,2.7,2.3,5c0,1.6-0.5,2.9-1.5,4c-1,1.1-2.5,2-4.7,2.8
									c0.8,0.2,1.5,1,2,2.1c0,0.1,0.1,0.1,0.1,0.2l3.5,7.7c0.3,0.6,0.6,1.2,1,1.6c0.4,0.5,0.7,0.8,1,1c0.1,0.1,0.4,0.1,0.7,0.2
									c0.5,0.1,0.7,0.3,0.7,0.5c0,0.2-0.1,0.3-0.2,0.4c-0.1,0.1-0.3,0.1-0.6,0.1c-0.5,0-1.1,0-1.9,0c-0.8,0-1.3,0-1.7,0
									c-0.4,0-0.8,0-1.2,0c-0.4,0-0.6,0-0.7,0c-0.3,0-0.5-0.2-0.6-0.5c0-0.1-0.1-0.2-0.1-0.2l-4.4-10.1c-0.5-1.1-0.9-1.8-1.2-2
									c-0.3-0.3-0.8-0.4-1.4-0.4c-0.2,0-0.3,0-0.5,0c-0.1,0-0.3,0.1-0.4,0.1v9.9c0,0.7,0.1,1.2,0.2,1.5c0.1,0.3,0.4,0.5,0.7,0.6
									c0.2,0,0.5,0.1,0.9,0.1c0.7,0.1,1,0.3,1,0.6c0,0.2-0.1,0.3-0.2,0.3c-0.1,0.1-0.4,0.1-0.7,0.1c-0.1,0-0.5,0-1.3,0
									c-0.8,0-1.4,0-2.1,0c-0.7,0-1.6,0-2.4,0c-0.9,0-1.4,0-1.5,0c-0.6,0-0.9,0-1-0.1c-0.1-0.1-0.2-0.2-0.2-0.4
									c0-0.2,0.2-0.4,0.6-0.5c0.3-0.1,0.5-0.2,0.6-0.3c0.5-0.1,0.8-0.3,1-0.6c0.2-0.3,0.3-0.8,0.3-1.7V103.6z M538,103.5v7.1
									c0,1.1,0.1,1.8,0.3,2c0.2,0.3,0.6,0.4,1.2,0.4c1.8,0,3.2-0.5,4.1-1.6c1-1.1,1.5-2.6,1.5-4.5c0-1.7-0.4-3.1-1.3-4
									c-0.9-0.9-2.1-1.4-3.7-1.4c-0.9,0-1.4,0.1-1.7,0.3C538.2,102.1,538,102.7,538,103.5z"/>
								<path class="st1" d="M559.4,124.3c0,0.7,0.1,1.2,0.2,1.5c0.1,0.3,0.3,0.4,0.6,0.6c0.1,0,0.3,0,0.5,0.1
									c0.7,0.1,1.1,0.3,1.1,0.7c0,0.1-0.1,0.2-0.2,0.3c-0.1,0.1-0.3,0.1-0.6,0.1c-0.1,0-0.2,0-0.5,0c-1,0-2-0.1-2.9-0.1
									c-0.6,0-1.3,0-2.2,0c-0.8,0-1.3,0-1.5,0c-0.6,0-0.9,0-1-0.1c-0.1-0.1-0.2-0.2-0.2-0.4c0-0.2,0.2-0.4,0.6-0.5
									c0.3-0.1,0.5-0.2,0.6-0.3c0.5-0.1,0.8-0.3,1-0.6c0.2-0.3,0.3-0.8,0.3-1.7v-20.5c0-0.7-0.1-1.1-0.2-1.3
									c-0.1-0.2-0.3-0.4-0.6-0.5c-0.1,0-0.4-0.1-0.7-0.1c-0.7-0.1-1-0.3-1-0.7c0-0.2,0.1-0.3,0.2-0.4c0.1-0.1,0.4-0.1,0.7-0.1
									c0,0,0.2,0,0.4,0c1.1,0,2.2,0.1,3.2,0.1c0.4,0,1.1,0,1.8,0c0.8,0,1.4,0,1.7,0c0.4,0,0.7,0,0.9,0.1c0.2,0.1,0.3,0.2,0.3,0.4
									c0,0.3-0.3,0.5-1,0.7c-0.2,0-0.3,0.1-0.3,0.1c-0.5,0-0.9,0.2-1,0.3c-0.2,0.2-0.2,0.7-0.2,1.5V124.3z"/>
								<path class="st1" d="M566.3,122.7c-0.1,0.4-0.1,0.7-0.2,1.1c-0.1,0.4-0.1,0.7-0.1,1.1c0,0.4,0.1,0.8,0.3,1
									c0.2,0.2,0.6,0.4,1,0.6c0.2,0.1,0.5,0.1,0.8,0.1c0.5,0.1,0.8,0.3,0.8,0.5c0,0.2-0.1,0.3-0.2,0.3c-0.1,0.1-0.3,0.1-0.5,0.1
									c-0.1,0-0.2,0-0.4,0c-0.8,0-1.7-0.1-2.4-0.1c-0.2,0-0.5,0-0.9,0c-0.4,0-0.8,0-1.1,0H563c-0.5,0-0.9,0-1-0.1
									c-0.1-0.1-0.2-0.2-0.2-0.4c0-0.3,0.2-0.4,0.7-0.5c0.3-0.1,0.5-0.1,0.6-0.1c0.3-0.1,0.6-0.4,0.8-0.8c0.2-0.4,0.5-1,0.7-1.8
									l6.6-22.7c0-0.1,0-0.1,0.1-0.3c0.2-0.7,0.5-1,0.7-1c0.2,0,0.4,0.1,0.5,0.2c0.1,0.1,0.2,0.4,0.3,0.8l6.4,21.5
									c0.1,0.2,0.1,0.5,0.3,0.8c0.6,1.9,1.1,3,1.5,3.2c0.2,0.1,0.5,0.2,0.9,0.3c0.4,0.1,0.6,0.3,0.6,0.5c0,0.2-0.1,0.3-0.2,0.4
									c-0.1,0.1-0.3,0.1-0.6,0.1c-0.1,0-0.3,0-0.5,0c-1.2,0-2.3-0.1-3.4-0.1c-1.1,0-2.2,0-3.3,0.1c-0.2,0-0.3,0-0.4,0
									c-0.3,0-0.4,0-0.6-0.1c-0.1-0.1-0.2-0.2-0.2-0.3c0-0.3,0.3-0.4,0.8-0.5c0.2,0,0.4-0.1,0.5-0.1c0.4-0.1,0.7-0.2,0.8-0.4
									c0.1-0.1,0.2-0.4,0.2-0.7c0-0.2,0-0.4,0-0.6c0-0.2-0.1-0.4-0.1-0.6l-1.3-5c-0.2-0.6-0.4-1-0.6-1.2c-0.3-0.2-0.7-0.2-1.3-0.2
									h-3.1c-0.8,0-1.3,0.1-1.5,0.2c-0.2,0.1-0.3,0.5-0.5,1.2L566.3,122.7z M568.6,114.4c-0.1,0.3-0.2,0.7-0.2,1
									c-0.1,0.3-0.1,0.5-0.1,0.7c0,0.1,0.1,0.3,0.2,0.4c0.1,0.1,0.3,0.2,0.5,0.2h3.5c0.3,0,0.5,0,0.6-0.1c0.2-0.1,0.2-0.2,0.2-0.3
									c0-0.1,0-0.3,0-0.4c0-0.1-0.1-0.3-0.1-0.4l-1.9-6.6c0,0,0,0,0-0.1c-0.2-0.7-0.3-1-0.5-1c-0.1,0-0.2,0.1-0.3,0.2
									c-0.1,0.1-0.2,0.5-0.3,1L568.6,114.4z"/>
								<path class="st1" d="M584.7,103.6c0-0.7-0.1-1.1-0.2-1.3c-0.1-0.2-0.3-0.4-0.6-0.5c-0.2,0-0.4-0.1-0.7-0.1
									c-0.7-0.1-1.1-0.3-1.1-0.7c0-0.2,0.1-0.3,0.2-0.3c0.1-0.1,0.4-0.1,0.7-0.1c0,0,0.2,0,0.4,0c1.1,0,2.2,0.1,3.2,0.1
									c0.4,0,1.1,0,1.8,0c0.8,0,1.4,0,1.7,0c0.4,0,0.7,0,0.9,0.1c0.2,0.1,0.3,0.2,0.3,0.4c0,0.3-0.3,0.5-1,0.7
									c-0.2,0-0.3,0.1-0.3,0.1c-0.5,0-0.9,0.2-1,0.3c-0.2,0.2-0.2,0.7-0.2,1.5v17.9c0,1.8,0.2,3.1,0.5,3.8c0.4,0.7,1,1.1,1.9,1.1
									c1,0,1.9-0.2,2.7-0.7c0.8-0.5,1.3-1.2,1.6-2.1c0.2-0.6,0.4-1.4,0.6-2.3c0.2-0.9,0.5-1.4,0.8-1.4c0.2,0,0.4,0,0.4,0.1
									c0.1,0.1,0.1,0.3,0.1,0.7v5.6c0,0.7-0.1,1.2-0.2,1.3c-0.1,0.1-0.5,0.2-1,0.2c-0.5,0-1.7,0-3.4-0.1c-1.7-0.1-3.1-0.1-4.3-0.1
									h-5.4c-0.5,0-0.9,0-1-0.1c-0.1-0.1-0.2-0.2-0.2-0.4c0-0.2,0.2-0.3,0.5-0.5c0.3-0.1,0.6-0.2,0.7-0.3c0.5-0.1,0.8-0.2,1-0.5
									c0.2-0.3,0.3-0.8,0.3-1.7V103.6z"/>
							</g>
						</g>
					</g>
				</g>
			</g>
		</g>
		<g>
			<path class="st1" d="M98.9,177.8l0,3.1v0.4c0,0.3,0,0.5,0,0.7c0,0.1-0.1,0.3-0.2,0.4c-0.4,0.5-1.1,0.9-2.1,1.2
				c-1,0.3-2.1,0.5-3.2,0.5c-1.3,0-2.5-0.3-3.6-0.9c-1.1-0.6-2.1-1.5-3-2.7c-0.9-1.2-1.7-2.6-2.1-4.1c-0.5-1.5-0.7-3.2-0.7-5
				c0-3.7,0.9-6.7,2.7-9c1.8-2.3,4.2-3.5,7.1-3.5c1,0,2,0.1,2.8,0.4c0.8,0.2,1.4,0.5,1.6,0.8c0.1,0.1,0.1,0.3,0.2,0.5
				c0,0.3,0.1,0.6,0.1,0.9l0.1,3.6c0,0.3,0,0.5-0.1,0.6c-0.1,0.1-0.2,0.2-0.4,0.2c-0.4,0-0.8-0.6-1.2-1.7c-0.1-0.3-0.2-0.5-0.2-0.7
				c-0.5-1.3-1-2.3-1.5-2.8c-0.5-0.5-1.2-0.8-2-0.8c-1.6,0-2.9,0.9-3.9,2.7c-0.9,1.8-1.4,4.3-1.4,7.5c0,3.9,0.5,6.9,1.5,9.2
				c1,2.3,2.3,3.4,4,3.4c0.9,0,1.6-0.3,2.3-1c0.7-0.7,1.2-1.6,1.5-2.8c0.1-0.4,0.2-1,0.3-1.7c0.2-1.3,0.6-2,1-2
				c0.2,0,0.4,0.1,0.4,0.3c0.1,0.2,0.1,0.6,0.1,1.1V177.8z"/>
			<path class="st1" d="M103,179.2c-0.1,0.3-0.1,0.6-0.2,1c0,0.3-0.1,0.6-0.1,0.9c0,0.4,0.1,0.7,0.3,0.9c0.2,0.2,0.5,0.4,0.9,0.5
				c0.2,0.1,0.4,0.1,0.7,0.1c0.5,0.1,0.7,0.2,0.7,0.5c0,0.1-0.1,0.2-0.1,0.3c-0.1,0.1-0.2,0.1-0.5,0.1c-0.1,0-0.2,0-0.4,0
				c-0.7,0-1.5-0.1-2.2-0.1c-0.1,0-0.4,0-0.8,0c-0.4,0-0.7,0-1,0h-0.4c-0.5,0-0.8,0-0.9-0.1c-0.1-0.1-0.2-0.2-0.2-0.4
				c0-0.2,0.2-0.4,0.6-0.5c0.2,0,0.4-0.1,0.5-0.1c0.3-0.1,0.5-0.4,0.7-0.7c0.2-0.4,0.4-0.9,0.6-1.6l5.8-20c0-0.1,0-0.1,0.1-0.2
				c0.2-0.6,0.4-0.9,0.7-0.9c0.2,0,0.3,0.1,0.4,0.2c0.1,0.1,0.2,0.3,0.3,0.7l5.6,19c0,0.2,0.1,0.4,0.2,0.7c0.5,1.7,0.9,2.6,1.3,2.8
				c0.1,0.1,0.4,0.2,0.8,0.3c0.4,0.1,0.6,0.2,0.6,0.4c0,0.2-0.1,0.3-0.1,0.3c-0.1,0.1-0.3,0.1-0.5,0.1c-0.1,0-0.2,0-0.5,0
				c-1,0-2-0.1-3-0.1c-1,0-1.9,0-2.9,0.1c-0.2,0-0.3,0-0.4,0c-0.2,0-0.4,0-0.5-0.1c-0.1-0.1-0.2-0.2-0.2-0.3c0-0.2,0.2-0.4,0.7-0.5
				c0.2,0,0.3-0.1,0.4-0.1c0.4-0.1,0.6-0.2,0.7-0.3c0.1-0.1,0.2-0.3,0.2-0.7c0-0.2,0-0.4,0-0.6c0-0.2-0.1-0.4-0.1-0.5l-1.2-4.4
				c-0.1-0.6-0.3-0.9-0.6-1.1c-0.2-0.1-0.6-0.2-1.2-0.2h-2.8c-0.7,0-1.2,0.1-1.3,0.2c-0.2,0.1-0.3,0.5-0.4,1L103,179.2z
				 M105.1,171.8c-0.1,0.3-0.2,0.6-0.2,0.8c-0.1,0.3-0.1,0.5-0.1,0.6c0,0.1,0.1,0.2,0.2,0.3c0.1,0.1,0.3,0.1,0.4,0.1h3.1
				c0.2,0,0.4,0,0.6-0.1c0.1-0.1,0.2-0.2,0.2-0.3c0-0.1,0-0.2,0-0.4c0-0.1,0-0.2-0.1-0.4l-1.6-5.8c0,0,0,0,0-0.1
				c-0.1-0.6-0.3-0.9-0.5-0.9c-0.1,0-0.2,0.1-0.3,0.2c-0.1,0.1-0.2,0.4-0.3,0.9L105.1,171.8z M105,157l5.2-5.3
				c0.4-0.4,0.7-0.7,0.9-0.8c0.2-0.1,0.5-0.2,0.8-0.2c0.4,0,0.7,0.1,1,0.3c0.2,0.2,0.4,0.5,0.4,0.9c0,0.3-0.1,0.5-0.3,0.8
				c-0.2,0.2-0.5,0.5-0.8,0.7l-5.9,3.7H105z"/>
			<path class="st1" d="M119.2,162.1v-0.1c0-0.4-0.1-0.6-0.2-0.8c-0.1-0.2-0.3-0.3-0.6-0.4c-0.1,0-0.3-0.1-0.6-0.1
				c-0.7-0.1-1-0.3-1-0.6c0-0.2,0.1-0.3,0.3-0.4c0.2-0.1,0.6-0.1,1-0.1h1.7h2.4c0.4,0,0.7,0.2,0.8,0.5v0l4.4,13.3
				c0.2,0.6,0.4,1.1,0.5,1.3c0.1,0.2,0.2,0.3,0.3,0.3c0.1,0,0.3-0.2,0.4-0.7l0,0l4.3-13.3c0.2-0.6,0.4-1,0.6-1.1
				c0.2-0.2,0.5-0.2,0.9-0.2h1.6h2.5c0.4,0,0.6,0,0.7,0.1c0.1,0.1,0.2,0.2,0.2,0.3c0,0.3-0.3,0.5-0.9,0.6c-0.1,0-0.2,0-0.3,0
				c-0.4,0.1-0.7,0.2-0.8,0.4c-0.1,0.2-0.2,0.5-0.2,0.9v0.2l0.4,18.4c0,0.5,0.1,0.9,0.2,1.2c0.1,0.3,0.2,0.5,0.4,0.7
				c0.1,0.1,0.4,0.1,0.9,0.2c0.4,0.1,0.7,0.2,0.7,0.4c0,0.2-0.1,0.3-0.2,0.3c-0.1,0.1-0.4,0.1-0.9,0.1c-0.3,0-0.7,0-1.3,0
				c-0.6,0-1,0-1.3,0c-0.7,0-1.5,0-2.5,0c-1,0-1.6,0-1.8,0h-0.3c-0.2,0-0.4,0-0.5-0.1c-0.1,0-0.1-0.1-0.1-0.2c0-0.3,0.3-0.5,0.9-0.7
				c0.1-0.1,0.2-0.1,0.3-0.1c0.7-0.1,1.1-0.2,1.3-0.4c0.2-0.2,0.3-0.6,0.3-1.2v-0.3l-0.1-14c0-0.6,0-1.1-0.1-1.4
				c-0.1-0.3-0.2-0.5-0.3-0.5c-0.1,0-0.2,0.1-0.3,0.3c-0.1,0.2-0.2,0.4-0.3,0.7l-4.7,15.3l-0.1,0.2c-0.4,1.4-0.8,2.1-1.1,2.1
				c-0.2,0-0.6-0.8-1.1-2.5c0-0.1,0-0.1-0.1-0.2l-4.4-14.7c-0.1-0.3-0.2-0.5-0.3-0.7c-0.1-0.2-0.2-0.3-0.3-0.3
				c-0.1,0-0.2,0.1-0.3,0.3c-0.1,0.2-0.1,0.5-0.1,1l-0.2,14.2v0.1c0,0.6,0.1,1.1,0.3,1.4c0.2,0.3,0.6,0.4,1,0.4h0.2
				c0.2,0,0.4,0.1,0.6,0.1c0.1,0.1,0.2,0.2,0.2,0.4c0,0.2-0.1,0.3-0.2,0.4c-0.1,0.1-0.4,0.1-0.8,0.1c-0.1,0-0.2,0-0.4,0
				c-0.8,0-1.6-0.1-2.4-0.1c-0.3,0-0.7,0-1.1,0c-0.4,0-0.7,0-0.8,0c-0.2,0-0.4,0-0.5-0.1c-0.1-0.1-0.2-0.2-0.2-0.3
				c0-0.4,0.3-0.6,0.9-0.7c0.1,0,0.3,0,0.3,0c0.4-0.1,0.7-0.4,0.9-0.6c0.1-0.3,0.2-0.7,0.3-1.4L119.2,162.1z"/>
			<path class="st1" d="M143.5,179.2c-0.1,0.3-0.1,0.6-0.2,1c0,0.3-0.1,0.6-0.1,0.9c0,0.4,0.1,0.7,0.3,0.9c0.2,0.2,0.5,0.4,0.9,0.5
				c0.2,0.1,0.4,0.1,0.7,0.1c0.5,0.1,0.7,0.2,0.7,0.5c0,0.1-0.1,0.2-0.1,0.3c-0.1,0.1-0.2,0.1-0.5,0.1c-0.1,0-0.2,0-0.4,0
				c-0.7,0-1.5-0.1-2.2-0.1c-0.1,0-0.4,0-0.8,0c-0.4,0-0.7,0-1,0h-0.4c-0.5,0-0.8,0-0.9-0.1c-0.1-0.1-0.2-0.2-0.2-0.4
				c0-0.2,0.2-0.4,0.6-0.5c0.2,0,0.4-0.1,0.5-0.1c0.3-0.1,0.5-0.4,0.7-0.7c0.2-0.4,0.4-0.9,0.6-1.6l5.8-20c0-0.1,0-0.1,0.1-0.2
				c0.2-0.6,0.4-0.9,0.7-0.9c0.2,0,0.3,0.1,0.4,0.2c0.1,0.1,0.2,0.3,0.3,0.7l5.6,19c0,0.2,0.1,0.4,0.2,0.7c0.5,1.7,0.9,2.6,1.3,2.8
				c0.1,0.1,0.4,0.2,0.8,0.3c0.4,0.1,0.6,0.2,0.6,0.4c0,0.2-0.1,0.3-0.1,0.3c-0.1,0.1-0.3,0.1-0.5,0.1c-0.1,0-0.2,0-0.5,0
				c-1,0-2-0.1-3-0.1c-1,0-1.9,0-2.9,0.1c-0.2,0-0.3,0-0.4,0c-0.2,0-0.4,0-0.5-0.1c-0.1-0.1-0.2-0.2-0.2-0.3c0-0.2,0.2-0.4,0.7-0.5
				c0.2,0,0.3-0.1,0.4-0.1c0.4-0.1,0.6-0.2,0.7-0.3c0.1-0.1,0.2-0.3,0.2-0.7c0-0.2,0-0.4,0-0.6c0-0.2-0.1-0.4-0.1-0.5l-1.2-4.4
				c-0.1-0.6-0.3-0.9-0.6-1.1c-0.2-0.1-0.6-0.2-1.2-0.2h-2.8c-0.7,0-1.2,0.1-1.3,0.2c-0.2,0.1-0.3,0.5-0.4,1L143.5,179.2z
				 M145.6,171.8c-0.1,0.3-0.2,0.6-0.2,0.8c-0.1,0.3-0.1,0.5-0.1,0.6c0,0.1,0.1,0.2,0.2,0.3c0.1,0.1,0.3,0.1,0.4,0.1h3.1
				c0.2,0,0.4,0,0.6-0.1c0.1-0.1,0.2-0.2,0.2-0.3c0-0.1,0-0.2,0-0.4c0-0.1,0-0.2-0.1-0.4l-1.6-5.8c0,0,0,0,0-0.1
				c-0.1-0.6-0.3-0.9-0.5-0.9c-0.1,0-0.2,0.1-0.3,0.2c-0.1,0.1-0.2,0.4-0.3,0.9L145.6,171.8z"/>
			<path class="st1" d="M159.8,162.2c0-0.6,0-1-0.1-1.2c-0.1-0.2-0.3-0.4-0.5-0.6c-0.1,0-0.3,0-0.5,0c-0.7,0-1-0.2-1-0.6
				c0-0.2,0.1-0.3,0.2-0.4s0.3-0.1,0.6-0.1c0,0,0.3,0,0.7,0.1c0.4,0,0.8,0.1,1.2,0.1c0.3,0,1.1,0,2.2-0.1c1.1,0,2.1-0.1,2.9-0.1
				c3,0,5.2,0.5,6.6,1.4c1.4,0.9,2.1,2.4,2.1,4.4c0,1.4-0.4,2.6-1.3,3.5c-0.9,1-2.2,1.8-4.2,2.5c0.7,0.2,1.3,0.8,1.8,1.9
				c0,0.1,0.1,0.1,0.1,0.2l3.1,6.8c0.3,0.5,0.5,1,0.9,1.4c0.3,0.4,0.6,0.7,0.9,0.8c0.1,0,0.3,0.1,0.6,0.1c0.4,0.1,0.7,0.2,0.7,0.4
				c0,0.2-0.1,0.3-0.2,0.4c-0.1,0.1-0.3,0.1-0.5,0.1c-0.4,0-0.9,0-1.6,0c-0.7,0-1.2,0-1.5,0c-0.3,0-0.7,0-1,0c-0.4,0-0.6,0-0.6,0
				c-0.2,0-0.4-0.2-0.5-0.5c0-0.1-0.1-0.2-0.1-0.2l-3.9-8.9c-0.4-1-0.8-1.6-1.1-1.8c-0.3-0.2-0.7-0.3-1.2-0.3c-0.2,0-0.3,0-0.4,0
				s-0.2,0.1-0.3,0.1v8.7c0,0.6,0.1,1.1,0.2,1.3c0.1,0.2,0.3,0.4,0.6,0.5c0.2,0,0.4,0.1,0.8,0.1c0.6,0.1,0.9,0.2,0.9,0.6
				c0,0.1-0.1,0.2-0.2,0.3c-0.1,0.1-0.3,0.1-0.7,0.1c-0.1,0-0.5,0-1.1,0c-0.7,0-1.3,0-1.8,0c-0.7,0-1.4,0-2.2,0c-0.8,0-1.2,0-1.3,0
				c-0.5,0-0.8,0-0.9-0.1c-0.1-0.1-0.2-0.2-0.2-0.3c0-0.2,0.2-0.3,0.5-0.4c0.2-0.1,0.4-0.1,0.6-0.2c0.4-0.1,0.7-0.3,0.9-0.5
				c0.2-0.2,0.2-0.7,0.2-1.5V162.2z M163.5,162.2v6.3c0,1,0.1,1.6,0.3,1.8c0.2,0.2,0.5,0.3,1.1,0.3c1.6,0,2.8-0.5,3.7-1.4
				c0.9-0.9,1.3-2.3,1.3-4c0-1.5-0.4-2.7-1.2-3.5c-0.8-0.8-1.9-1.2-3.3-1.2c-0.8,0-1.3,0.1-1.5,0.3
				C163.6,160.9,163.5,161.4,163.5,162.2z"/>
			<path class="st1" d="M176.2,179.2c-0.1,0.3-0.1,0.6-0.2,1c0,0.3-0.1,0.6-0.1,0.9c0,0.4,0.1,0.7,0.3,0.9c0.2,0.2,0.5,0.4,0.9,0.5
				c0.2,0.1,0.4,0.1,0.7,0.1c0.5,0.1,0.7,0.2,0.7,0.5c0,0.1-0.1,0.2-0.1,0.3c-0.1,0.1-0.2,0.1-0.5,0.1c-0.1,0-0.2,0-0.4,0
				c-0.7,0-1.5-0.1-2.2-0.1c-0.1,0-0.4,0-0.8,0c-0.4,0-0.7,0-1,0h-0.4c-0.5,0-0.8,0-0.9-0.1c-0.1-0.1-0.2-0.2-0.2-0.4
				c0-0.2,0.2-0.4,0.6-0.5c0.2,0,0.4-0.1,0.5-0.1c0.3-0.1,0.5-0.4,0.7-0.7c0.2-0.4,0.4-0.9,0.6-1.6l5.8-20c0-0.1,0-0.1,0.1-0.2
				c0.2-0.6,0.4-0.9,0.7-0.9c0.2,0,0.3,0.1,0.4,0.2c0.1,0.1,0.2,0.3,0.3,0.7l5.6,19c0,0.2,0.1,0.4,0.2,0.7c0.5,1.7,0.9,2.6,1.3,2.8
				c0.1,0.1,0.4,0.2,0.8,0.3c0.4,0.1,0.6,0.2,0.6,0.4c0,0.2-0.1,0.3-0.1,0.3c-0.1,0.1-0.3,0.1-0.5,0.1c-0.1,0-0.2,0-0.5,0
				c-1,0-2-0.1-3-0.1c-1,0-1.9,0-2.9,0.1c-0.2,0-0.3,0-0.4,0c-0.2,0-0.4,0-0.5-0.1c-0.1-0.1-0.2-0.2-0.2-0.3c0-0.2,0.2-0.4,0.7-0.5
				c0.2,0,0.3-0.1,0.4-0.1c0.4-0.1,0.6-0.2,0.7-0.3c0.1-0.1,0.2-0.3,0.2-0.7c0-0.2,0-0.4,0-0.6c0-0.2-0.1-0.4-0.1-0.5l-1.2-4.4
				c-0.1-0.6-0.3-0.9-0.6-1.1c-0.2-0.1-0.6-0.2-1.2-0.2h-2.8c-0.7,0-1.2,0.1-1.3,0.2c-0.2,0.1-0.3,0.5-0.4,1L176.2,179.2z
				 M178.3,171.8c-0.1,0.3-0.2,0.6-0.2,0.8c-0.1,0.3-0.1,0.5-0.1,0.6c0,0.1,0.1,0.2,0.2,0.3c0.1,0.1,0.3,0.1,0.4,0.1h3.1
				c0.2,0,0.4,0,0.6-0.1c0.1-0.1,0.2-0.2,0.2-0.3c0-0.1,0-0.2,0-0.4c0-0.1,0-0.2-0.1-0.4l-1.6-5.8c0,0,0,0,0-0.1
				c-0.1-0.6-0.3-0.9-0.5-0.9c-0.1,0-0.2,0.1-0.3,0.2c-0.1,0.1-0.2,0.4-0.3,0.9L178.3,171.8z"/>
			<path class="st1" d="M200.7,162.6c0-0.7-0.1-1.1-0.2-1.4c-0.2-0.2-0.4-0.4-0.8-0.4c-0.1,0-0.3,0-0.5,0c-0.2,0-0.4,0-0.6,0
				c-0.2,0-0.4,0-0.5-0.1c-0.1-0.1-0.2-0.2-0.2-0.4c0-0.4,0.7-0.8,2.2-1.1c1.5-0.3,3.4-0.4,5.9-0.4c1.7,0,3.1,0.2,4.3,0.6
				c1.2,0.4,2.3,1.1,3.3,2c1.3,1.1,2.2,2.5,2.9,4.2c0.7,1.6,1,3.4,1,5.3c0,3.8-1,6.9-2.9,9.2c-2,2.3-4.6,3.4-7.9,3.4
				c-0.4,0-1.1,0-2.2-0.1c-1.1-0.1-2-0.1-2.7-0.1c-0.5,0-1,0-1.6,0c-0.6,0-1,0-1.1,0c-0.5,0-0.8,0-0.9-0.1c-0.1-0.1-0.2-0.2-0.2-0.3
				c0-0.2,0.3-0.4,0.7-0.4c0.5,0,0.8-0.1,1-0.1c0.4-0.1,0.7-0.4,0.9-0.6c0.1-0.3,0.2-0.8,0.2-1.5V162.6z M204.4,163.6v16.2
				c0,1,0.2,1.7,0.6,2.1c0.4,0.4,1,0.6,1.9,0.6c2.2,0,3.8-1,4.9-2.9c1.1-1.9,1.7-4.7,1.7-8.4c0-3.4-0.6-6.2-1.9-8.3
				c-1.3-2.1-2.9-3.1-4.9-3.1c-0.9,0-1.5,0.3-1.8,0.8C204.5,161.2,204.4,162.2,204.4,163.6z"/>
			<path class="st1" d="M234.1,159.5v5.2c0,0.3,0,0.5-0.1,0.6c-0.1,0.1-0.2,0.1-0.3,0.1c-0.3,0-0.6-0.4-0.8-1.1
				c-0.2-0.5-0.4-0.9-0.5-1.2c-0.5-0.9-1-1.6-1.7-2c-0.7-0.4-1.6-0.6-2.8-0.6c-0.9,0-1.5,0.1-1.8,0.3c-0.3,0.2-0.4,0.6-0.4,1.3v7.1
				c0,0.2,0.1,0.4,0.2,0.5c0.1,0.1,0.4,0.1,0.8,0.1h1c0.8,0,1.4-0.1,1.9-0.3c0.5-0.2,0.8-0.5,1.1-0.8c0.2-0.2,0.4-0.7,0.5-1.2
				c0.2-0.6,0.4-0.9,0.6-0.9c0.1,0,0.3,0,0.3,0.1c0.1,0.1,0.1,0.3,0.1,0.6v6.2c0,0.4,0,0.7-0.1,0.8c-0.1,0.1-0.2,0.2-0.4,0.2
				c-0.3,0-0.5-0.3-0.7-1c-0.1-0.5-0.2-0.8-0.4-1.1c-0.3-0.6-0.6-1-1-1.2c-0.4-0.2-1.1-0.3-2.1-0.3h-1c-0.3,0-0.5,0.1-0.6,0.2
				c-0.1,0.1-0.2,0.4-0.2,0.8v6.1c0,1.7,0.2,2.8,0.7,3.4c0.4,0.6,1.2,0.9,2.3,0.9c1.3,0,2.3-0.3,3-0.8c0.7-0.6,1.3-1.4,1.7-2.7
				c0.1-0.3,0.2-0.7,0.3-1.1c0.2-0.8,0.5-1.2,0.8-1.2c0.2,0,0.3,0,0.4,0.1s0.1,0.3,0.1,0.6v5.2c0,0.5,0,0.8-0.1,0.9
				c-0.1,0.1-0.4,0.1-1,0.1c-0.8,0-2,0-3.7-0.1c-1.7,0-3-0.1-3.9-0.1h-5.3c-0.5,0-0.8,0-0.9-0.1c-0.1-0.1-0.2-0.2-0.2-0.3
				c0-0.2,0.2-0.3,0.5-0.4c0.2-0.1,0.4-0.1,0.5-0.2c0.4-0.1,0.7-0.3,0.9-0.5c0.2-0.2,0.2-0.7,0.2-1.5v-18.1c0-0.6,0-1-0.1-1.2
				c-0.1-0.2-0.3-0.4-0.5-0.5c-0.1,0-0.3-0.1-0.6-0.1c-0.6,0-1-0.2-1-0.6c0-0.1,0.1-0.2,0.2-0.3c0.1,0,0.3-0.1,0.6-0.1h6.3
				c1.6,0,2.9,0,4,0C231.9,159.5,233,159.5,234.1,159.5z"/>
			<path class="st1" d="M261,177.8l0,3.1v0.4c0,0.3,0,0.5,0,0.7c0,0.1-0.1,0.3-0.2,0.4c-0.4,0.5-1.1,0.9-2.1,1.2
				c-1,0.3-2.1,0.5-3.2,0.5c-1.3,0-2.5-0.3-3.6-0.9c-1.1-0.6-2.1-1.5-3-2.7c-0.9-1.2-1.7-2.6-2.1-4.1c-0.5-1.5-0.7-3.2-0.7-5
				c0-3.7,0.9-6.7,2.7-9c1.8-2.3,4.2-3.5,7.1-3.5c1,0,2,0.1,2.8,0.4c0.8,0.2,1.4,0.5,1.6,0.8c0.1,0.1,0.1,0.3,0.2,0.5
				c0,0.3,0.1,0.6,0.1,0.9l0.1,3.6c0,0.3,0,0.5-0.1,0.6c-0.1,0.1-0.2,0.2-0.4,0.2c-0.4,0-0.8-0.6-1.2-1.7c-0.1-0.3-0.2-0.5-0.2-0.7
				c-0.5-1.3-1-2.3-1.5-2.8c-0.5-0.5-1.2-0.8-2-0.8c-1.6,0-2.9,0.9-3.9,2.7c-0.9,1.8-1.4,4.3-1.4,7.5c0,3.9,0.5,6.9,1.5,9.2
				c1,2.3,2.3,3.4,4,3.4c0.9,0,1.6-0.3,2.3-1c0.7-0.7,1.2-1.6,1.5-2.8c0.1-0.4,0.2-1,0.3-1.7c0.2-1.3,0.6-2,1-2
				c0.2,0,0.4,0.1,0.4,0.3c0.1,0.2,0.1,0.6,0.1,1.1V177.8z"/>
			<path class="st1" d="M263.3,171.6c0-1.6,0.2-3.2,0.7-4.7c0.4-1.5,1-2.8,1.8-3.9c0.9-1.3,1.9-2.2,3.1-2.9c1.2-0.7,2.3-1,3.6-1
				c1.1,0,2.1,0.2,3.1,0.7c1,0.5,2,1.2,2.8,2.2c1.1,1.2,2,2.6,2.6,4.3c0.6,1.6,0.9,3.4,0.9,5.4c0,3.6-0.9,6.5-2.6,9
				c-1.8,2.4-3.9,3.6-6.4,3.6c-1.1,0-2.1-0.2-3.1-0.7c-1-0.5-2-1.2-2.8-2.2c-1.1-1.2-2-2.6-2.6-4.2
				C263.6,175.3,263.3,173.5,263.3,171.6z M272.1,160c-1.4,0-2.5,1-3.4,3c-0.9,2-1.3,4.7-1.3,8c0,3.5,0.5,6.3,1.6,8.6
				c1.1,2.3,2.4,3.4,3.9,3.4c1.4,0,2.5-1,3.4-3c0.9-2,1.3-4.7,1.3-8.1c0-3.4-0.5-6.3-1.6-8.5C274.9,161.1,273.6,160,272.1,160z"/>
			<path class="st1" d="M285.9,162.1v-0.1c0-0.4-0.1-0.6-0.2-0.8c-0.1-0.2-0.3-0.3-0.6-0.4c-0.1,0-0.3-0.1-0.6-0.1
				c-0.7-0.1-1-0.3-1-0.6c0-0.2,0.1-0.3,0.3-0.4c0.2-0.1,0.6-0.1,1-0.1h1.7h2.4c0.4,0,0.7,0.2,0.8,0.5v0l4.4,13.3
				c0.2,0.6,0.4,1.1,0.5,1.3c0.1,0.2,0.2,0.3,0.3,0.3c0.1,0,0.3-0.2,0.4-0.7l0,0l4.3-13.3c0.2-0.6,0.4-1,0.6-1.1
				c0.2-0.2,0.5-0.2,0.9-0.2h1.6h2.5c0.4,0,0.6,0,0.7,0.1c0.1,0.1,0.2,0.2,0.2,0.3c0,0.3-0.3,0.5-0.9,0.6c-0.1,0-0.2,0-0.3,0
				c-0.4,0.1-0.7,0.2-0.8,0.4c-0.1,0.2-0.2,0.5-0.2,0.9v0.2l0.4,18.4c0,0.5,0.1,0.9,0.2,1.2c0.1,0.3,0.2,0.5,0.4,0.7
				c0.1,0.1,0.4,0.1,0.9,0.2c0.4,0.1,0.7,0.2,0.7,0.4c0,0.2-0.1,0.3-0.2,0.3c-0.1,0.1-0.4,0.1-0.9,0.1c-0.3,0-0.7,0-1.3,0
				c-0.6,0-1,0-1.3,0c-0.7,0-1.5,0-2.5,0c-1,0-1.6,0-1.8,0h-0.3c-0.2,0-0.4,0-0.5-0.1c-0.1,0-0.1-0.1-0.1-0.2c0-0.3,0.3-0.5,0.9-0.7
				c0.1-0.1,0.2-0.1,0.3-0.1c0.7-0.1,1.1-0.2,1.3-0.4c0.2-0.2,0.3-0.6,0.3-1.2v-0.3l-0.1-14c0-0.6,0-1.1-0.1-1.4
				c-0.1-0.3-0.2-0.5-0.3-0.5c-0.1,0-0.2,0.1-0.3,0.3c-0.1,0.2-0.2,0.4-0.3,0.7l-4.7,15.3l-0.1,0.2c-0.4,1.4-0.8,2.1-1.1,2.1
				c-0.2,0-0.6-0.8-1.1-2.5c0-0.1,0-0.1-0.1-0.2l-4.4-14.7c-0.1-0.3-0.2-0.5-0.3-0.7c-0.1-0.2-0.2-0.3-0.3-0.3
				c-0.1,0-0.2,0.1-0.3,0.3c-0.1,0.2-0.1,0.5-0.1,1l-0.2,14.2v0.1c0,0.6,0.1,1.1,0.3,1.4c0.2,0.3,0.6,0.4,1,0.4h0.2
				c0.2,0,0.4,0.1,0.6,0.1c0.1,0.1,0.2,0.2,0.2,0.4c0,0.2-0.1,0.3-0.2,0.4c-0.1,0.1-0.4,0.1-0.8,0.1c-0.1,0-0.2,0-0.4,0
				c-0.8,0-1.6-0.1-2.4-0.1c-0.3,0-0.7,0-1.1,0c-0.4,0-0.7,0-0.8,0c-0.2,0-0.4,0-0.5-0.1c-0.1-0.1-0.2-0.2-0.2-0.3
				c0-0.4,0.3-0.6,0.9-0.7c0.1,0,0.3,0,0.3,0c0.4-0.1,0.7-0.4,0.9-0.6c0.1-0.3,0.2-0.7,0.3-1.4L285.9,162.1z"/>
			<path class="st1" d="M322.7,159.5v5.2c0,0.3,0,0.5-0.1,0.6c-0.1,0.1-0.2,0.1-0.3,0.1c-0.3,0-0.6-0.4-0.8-1.1
				c-0.2-0.5-0.4-0.9-0.5-1.2c-0.5-0.9-1-1.6-1.7-2c-0.7-0.4-1.6-0.6-2.8-0.6c-0.9,0-1.5,0.1-1.8,0.3c-0.3,0.2-0.4,0.6-0.4,1.3v7.1
				c0,0.2,0.1,0.4,0.2,0.5c0.1,0.1,0.4,0.1,0.8,0.1h1c0.8,0,1.4-0.1,1.9-0.3c0.5-0.2,0.8-0.5,1.1-0.8c0.2-0.2,0.4-0.7,0.5-1.2
				c0.2-0.6,0.4-0.9,0.6-0.9c0.1,0,0.3,0,0.3,0.1c0.1,0.1,0.1,0.3,0.1,0.6v6.2c0,0.4,0,0.7-0.1,0.8c-0.1,0.1-0.2,0.2-0.4,0.2
				c-0.3,0-0.5-0.3-0.7-1c-0.1-0.5-0.2-0.8-0.4-1.1c-0.3-0.6-0.6-1-1-1.2c-0.4-0.2-1.1-0.3-2.1-0.3h-1c-0.3,0-0.5,0.1-0.6,0.2
				c-0.1,0.1-0.2,0.4-0.2,0.8v6.1c0,1.7,0.2,2.8,0.7,3.4c0.4,0.6,1.2,0.9,2.3,0.9c1.3,0,2.3-0.3,3-0.8c0.7-0.6,1.3-1.4,1.7-2.7
				c0.1-0.3,0.2-0.7,0.3-1.1c0.2-0.8,0.5-1.2,0.8-1.2c0.2,0,0.3,0,0.4,0.1s0.1,0.3,0.1,0.6v5.2c0,0.5,0,0.8-0.1,0.9
				c-0.1,0.1-0.4,0.1-1,0.1c-0.8,0-2,0-3.7-0.1c-1.7,0-3-0.1-3.9-0.1h-5.3c-0.5,0-0.8,0-0.9-0.1c-0.1-0.1-0.2-0.2-0.2-0.3
				c0-0.2,0.2-0.3,0.5-0.4c0.2-0.1,0.4-0.1,0.5-0.2c0.4-0.1,0.7-0.3,0.9-0.5c0.2-0.2,0.2-0.7,0.2-1.5v-18.1c0-0.6,0-1-0.1-1.2
				c-0.1-0.2-0.3-0.4-0.5-0.5c-0.1,0-0.3-0.1-0.6-0.1c-0.6,0-1-0.2-1-0.6c0-0.1,0.1-0.2,0.2-0.3c0.1,0,0.3-0.1,0.6-0.1h6.3
				c1.6,0,2.9,0,4,0C320.5,159.5,321.6,159.5,322.7,159.5z"/>
			<path class="st1" d="M328.4,162.2c0-0.6,0-1-0.1-1.2c-0.1-0.2-0.3-0.4-0.5-0.6c-0.1,0-0.3,0-0.5,0c-0.7,0-1-0.2-1-0.6
				c0-0.2,0.1-0.3,0.2-0.4c0.1-0.1,0.3-0.1,0.6-0.1c0,0,0.3,0,0.7,0.1c0.4,0,0.8,0.1,1.2,0.1c0.3,0,1.1,0,2.2-0.1
				c1.1,0,2.1-0.1,2.9-0.1c3,0,5.2,0.5,6.6,1.4c1.4,0.9,2.1,2.4,2.1,4.4c0,1.4-0.4,2.6-1.3,3.5c-0.9,1-2.2,1.8-4.2,2.5
				c0.7,0.2,1.3,0.8,1.8,1.9c0,0.1,0.1,0.1,0.1,0.2l3.1,6.8c0.3,0.5,0.5,1,0.9,1.4c0.3,0.4,0.6,0.7,0.9,0.8c0.1,0,0.3,0.1,0.6,0.1
				c0.4,0.1,0.7,0.2,0.7,0.4c0,0.2-0.1,0.3-0.2,0.4c-0.1,0.1-0.3,0.1-0.5,0.1c-0.4,0-0.9,0-1.6,0c-0.7,0-1.2,0-1.5,0
				c-0.3,0-0.7,0-1,0c-0.4,0-0.6,0-0.6,0c-0.2,0-0.4-0.2-0.5-0.5c0-0.1-0.1-0.2-0.1-0.2l-3.9-8.9c-0.4-1-0.8-1.6-1.1-1.8
				c-0.3-0.2-0.7-0.3-1.2-0.3c-0.2,0-0.3,0-0.4,0c-0.1,0-0.2,0.1-0.3,0.1v8.7c0,0.6,0.1,1.1,0.2,1.3s0.3,0.4,0.6,0.5
				c0.2,0,0.4,0.1,0.8,0.1c0.6,0.1,0.9,0.2,0.9,0.6c0,0.1-0.1,0.2-0.2,0.3c-0.1,0.1-0.3,0.1-0.7,0.1c-0.1,0-0.5,0-1.1,0
				c-0.7,0-1.3,0-1.8,0c-0.7,0-1.4,0-2.2,0c-0.8,0-1.2,0-1.3,0c-0.5,0-0.8,0-0.9-0.1c-0.1-0.1-0.2-0.2-0.2-0.3
				c0-0.2,0.2-0.3,0.5-0.4c0.2-0.1,0.4-0.1,0.6-0.2c0.4-0.1,0.7-0.3,0.9-0.5c0.2-0.2,0.2-0.7,0.2-1.5V162.2z M332.2,162.2v6.3
				c0,1,0.1,1.6,0.3,1.8c0.2,0.2,0.5,0.3,1.1,0.3c1.6,0,2.8-0.5,3.7-1.4c0.9-0.9,1.3-2.3,1.3-4c0-1.5-0.4-2.7-1.2-3.5
				c-0.8-0.8-1.9-1.2-3.3-1.2c-0.8,0-1.3,0.1-1.5,0.3C332.3,160.9,332.2,161.4,332.2,162.2z"/>
			<path class="st1" d="M360.2,177.8l0,3.1v0.4c0,0.3,0,0.5,0,0.7c0,0.1-0.1,0.3-0.2,0.4c-0.4,0.5-1.1,0.9-2.1,1.2
				c-1,0.3-2.1,0.5-3.2,0.5c-1.3,0-2.5-0.3-3.6-0.9c-1.1-0.6-2.1-1.5-3-2.7c-0.9-1.2-1.7-2.6-2.1-4.1c-0.5-1.5-0.7-3.2-0.7-5
				c0-3.7,0.9-6.7,2.7-9c1.8-2.3,4.2-3.5,7.1-3.5c1,0,2,0.1,2.8,0.4c0.8,0.2,1.4,0.5,1.6,0.8c0.1,0.1,0.1,0.3,0.2,0.5
				c0,0.3,0.1,0.6,0.1,0.9l0.1,3.6c0,0.3,0,0.5-0.1,0.6c-0.1,0.1-0.2,0.2-0.4,0.2c-0.4,0-0.8-0.6-1.2-1.7c-0.1-0.3-0.2-0.5-0.2-0.7
				c-0.5-1.3-1-2.3-1.5-2.8c-0.5-0.5-1.2-0.8-2-0.8c-1.6,0-2.9,0.9-3.9,2.7c-0.9,1.8-1.4,4.3-1.4,7.5c0,3.9,0.5,6.9,1.5,9.2
				c1,2.3,2.3,3.4,4,3.4c0.9,0,1.6-0.3,2.3-1c0.7-0.7,1.2-1.6,1.5-2.8c0.1-0.4,0.2-1,0.3-1.7c0.2-1.3,0.6-2,1-2
				c0.2,0,0.4,0.1,0.4,0.3c0.1,0.2,0.1,0.6,0.1,1.1V177.8z"/>
			<path class="st1" d="M368.4,180.5c0,0.6,0.1,1.1,0.1,1.3c0.1,0.2,0.3,0.4,0.5,0.5c0.1,0,0.3,0,0.5,0.1c0.6,0.1,1,0.3,1,0.7
				c0,0.1-0.1,0.2-0.2,0.3c-0.1,0-0.3,0.1-0.5,0.1c-0.1,0-0.2,0-0.5,0c-0.9,0-1.7-0.1-2.6-0.1c-0.5,0-1.2,0-1.9,0
				c-0.7,0-1.2,0-1.3,0c-0.5,0-0.8,0-0.9-0.1c-0.1-0.1-0.2-0.2-0.2-0.3c0-0.2,0.2-0.3,0.5-0.4c0.2-0.1,0.4-0.1,0.6-0.2
				c0.4-0.1,0.7-0.3,0.9-0.5c0.2-0.2,0.2-0.7,0.2-1.5v-18.1c0-0.6,0-1-0.1-1.2c-0.1-0.2-0.3-0.4-0.5-0.5c-0.1,0-0.3-0.1-0.6-0.1
				c-0.6-0.1-0.9-0.3-0.9-0.6c0-0.1,0.1-0.3,0.2-0.3c0.1-0.1,0.3-0.1,0.6-0.1c0,0,0.2,0,0.4,0c1,0,1.9,0.1,2.8,0.1
				c0.4,0,0.9,0,1.6,0c0.7,0,1.2,0,1.5,0c0.3,0,0.6,0,0.8,0.1c0.2,0.1,0.3,0.2,0.3,0.3c0,0.2-0.3,0.4-0.9,0.6
				c-0.1,0-0.2,0.1-0.3,0.1c-0.5,0-0.8,0.1-0.9,0.3c-0.1,0.2-0.2,0.6-0.2,1.3V180.5z"/>
			<path class="st1" d="M372.7,171.6c0-1.6,0.2-3.2,0.7-4.7c0.4-1.5,1-2.8,1.8-3.9c0.9-1.3,1.9-2.2,3.1-2.9c1.2-0.7,2.3-1,3.6-1
				c1.1,0,2.1,0.2,3.1,0.7c1,0.5,2,1.2,2.8,2.2c1.1,1.2,2,2.6,2.6,4.3c0.6,1.6,0.9,3.4,0.9,5.4c0,3.6-0.9,6.5-2.6,9
				c-1.8,2.4-3.9,3.6-6.4,3.6c-1.1,0-2.1-0.2-3.1-0.7c-1-0.5-2-1.2-2.8-2.2c-1.1-1.2-2-2.6-2.6-4.2
				C373,175.3,372.7,173.5,372.7,171.6z M381.5,160c-1.4,0-2.5,1-3.4,3c-0.9,2-1.3,4.7-1.3,8c0,3.5,0.5,6.3,1.6,8.6
				c1.1,2.3,2.4,3.4,3.9,3.4c1.4,0,2.5-1,3.4-3c0.9-2,1.3-4.7,1.3-8.1c0-3.4-0.5-6.3-1.6-8.5C384.3,161.1,383,160,381.5,160z"/>
			<path class="st1" d="M403.6,162.6c0-0.7-0.1-1.1-0.2-1.4c-0.2-0.2-0.4-0.4-0.8-0.4c-0.1,0-0.3,0-0.5,0c-0.2,0-0.4,0-0.6,0
				c-0.2,0-0.4,0-0.5-0.1c-0.1-0.1-0.2-0.2-0.2-0.4c0-0.4,0.7-0.8,2.2-1.1c1.5-0.3,3.4-0.4,5.9-0.4c1.7,0,3.1,0.2,4.3,0.6
				c1.2,0.4,2.3,1.1,3.3,2c1.3,1.1,2.2,2.5,2.9,4.2c0.7,1.6,1,3.4,1,5.3c0,3.8-1,6.9-2.9,9.2c-2,2.3-4.6,3.4-7.9,3.4
				c-0.4,0-1.1,0-2.2-0.1c-1.1-0.1-2-0.1-2.7-0.1c-0.5,0-1,0-1.6,0c-0.6,0-1,0-1.1,0c-0.5,0-0.8,0-0.9-0.1c-0.1-0.1-0.2-0.2-0.2-0.3
				c0-0.2,0.3-0.4,0.7-0.4c0.5,0,0.8-0.1,1-0.1c0.4-0.1,0.7-0.4,0.9-0.6c0.1-0.3,0.2-0.8,0.2-1.5V162.6z M407.3,163.6v16.2
				c0,1,0.2,1.7,0.6,2.1c0.4,0.4,1,0.6,1.9,0.6c2.2,0,3.8-1,4.9-2.9c1.1-1.9,1.7-4.7,1.7-8.4c0-3.4-0.6-6.2-1.9-8.3
				c-1.3-2.1-2.9-3.1-4.9-3.1c-0.9,0-1.5,0.3-1.8,0.8C407.5,161.2,407.3,162.2,407.3,163.6z"/>
			<path class="st1" d="M437,159.5v5.2c0,0.3,0,0.5-0.1,0.6c-0.1,0.1-0.2,0.1-0.3,0.1c-0.3,0-0.6-0.4-0.8-1.1
				c-0.2-0.5-0.4-0.9-0.5-1.2c-0.5-0.9-1-1.6-1.7-2c-0.7-0.4-1.6-0.6-2.8-0.6c-0.9,0-1.5,0.1-1.8,0.3c-0.3,0.2-0.4,0.6-0.4,1.3v7.1
				c0,0.2,0.1,0.4,0.2,0.5c0.1,0.1,0.4,0.1,0.8,0.1h1c0.8,0,1.4-0.1,1.9-0.3c0.5-0.2,0.8-0.5,1.1-0.8c0.2-0.2,0.4-0.7,0.5-1.2
				c0.2-0.6,0.4-0.9,0.6-0.9c0.1,0,0.3,0,0.3,0.1c0.1,0.1,0.1,0.3,0.1,0.6v6.2c0,0.4,0,0.7-0.1,0.8c-0.1,0.1-0.2,0.2-0.4,0.2
				c-0.3,0-0.5-0.3-0.7-1c-0.1-0.5-0.2-0.8-0.4-1.1c-0.3-0.6-0.6-1-1-1.2c-0.4-0.2-1.1-0.3-2.1-0.3h-1c-0.3,0-0.5,0.1-0.6,0.2
				c-0.1,0.1-0.2,0.4-0.2,0.8v6.1c0,1.7,0.2,2.8,0.7,3.4c0.4,0.6,1.2,0.9,2.3,0.9c1.3,0,2.3-0.3,3-0.8c0.7-0.6,1.3-1.4,1.7-2.7
				c0.1-0.3,0.2-0.7,0.3-1.1c0.2-0.8,0.5-1.2,0.8-1.2c0.2,0,0.3,0,0.4,0.1s0.1,0.3,0.1,0.6v5.2c0,0.5,0,0.8-0.1,0.9
				c-0.1,0.1-0.4,0.1-1,0.1c-0.8,0-2,0-3.7-0.1c-1.7,0-3-0.1-3.9-0.1h-5.3c-0.5,0-0.8,0-0.9-0.1c-0.1-0.1-0.2-0.2-0.2-0.3
				c0-0.2,0.2-0.3,0.5-0.4c0.2-0.1,0.4-0.1,0.5-0.2c0.4-0.1,0.7-0.3,0.9-0.5c0.2-0.2,0.2-0.7,0.2-1.5v-18.1c0-0.6,0-1-0.1-1.2
				c-0.1-0.2-0.3-0.4-0.5-0.5c-0.1,0-0.3-0.1-0.6-0.1c-0.6,0-1-0.2-1-0.6c0-0.1,0.1-0.2,0.2-0.3c0.1,0,0.3-0.1,0.6-0.1h6.3
				c1.6,0,2.9,0,4,0C434.8,159.5,435.9,159.5,437,159.5z"/>
			<path class="st1" d="M451,162.3c0-0.6,0-1-0.1-1.2c-0.1-0.2-0.3-0.4-0.5-0.5c-0.1,0-0.3-0.1-0.6-0.1c-0.6-0.1-0.9-0.3-0.9-0.6
				c0-0.1,0.1-0.2,0.2-0.3c0.1-0.1,0.3-0.1,0.6-0.1c0,0,0.2,0,0.4,0c1,0,1.9,0.1,2.8,0.1c0.4,0,0.9,0,1.6,0c0.7,0,1.2,0,1.5,0
				c0.3,0,0.6,0,0.8,0.1c0.2,0.1,0.3,0.2,0.3,0.3c0,0.2-0.3,0.4-0.9,0.6c-0.1,0-0.2,0.1-0.3,0.1c-0.5,0-0.8,0.1-0.9,0.3
				c-0.1,0.2-0.2,0.6-0.2,1.3V178c0,1.6,0.2,2.7,0.5,3.4c0.3,0.6,0.9,0.9,1.6,0.9c0.9,0,1.7-0.2,2.4-0.7s1.1-1.1,1.4-1.9
				c0.2-0.6,0.4-1.2,0.6-2c0.2-0.8,0.4-1.2,0.7-1.2c0.2,0,0.3,0,0.4,0.1s0.1,0.3,0.1,0.6v5c0,0.7-0.1,1-0.1,1.2
				c-0.1,0.1-0.4,0.2-0.9,0.2c-0.5,0-1.5,0-3-0.1c-1.5-0.1-2.8-0.1-3.8-0.1h-4.8c-0.5,0-0.8,0-0.9-0.1c-0.1-0.1-0.2-0.2-0.2-0.3
				c0-0.2,0.1-0.3,0.4-0.4c0.3-0.1,0.5-0.2,0.6-0.3c0.4-0.1,0.7-0.2,0.9-0.4c0.2-0.2,0.3-0.7,0.3-1.5V162.3z"/>
			<path class="st1" d="M471.1,180.5c0,0.6,0.1,1.1,0.1,1.3c0.1,0.2,0.3,0.4,0.5,0.5c0.1,0,0.3,0,0.5,0.1c0.6,0.1,1,0.3,1,0.7
				c0,0.1-0.1,0.2-0.2,0.3c-0.1,0-0.3,0.1-0.5,0.1c-0.1,0-0.2,0-0.5,0c-0.9,0-1.7-0.1-2.6-0.1c-0.5,0-1.2,0-1.9,0
				c-0.7,0-1.2,0-1.3,0c-0.5,0-0.8,0-0.9-0.1c-0.1-0.1-0.2-0.2-0.2-0.3c0-0.2,0.2-0.3,0.5-0.4c0.2-0.1,0.4-0.1,0.6-0.2
				c0.4-0.1,0.7-0.3,0.9-0.5c0.2-0.2,0.2-0.7,0.2-1.5v-18.1c0-0.6,0-1-0.1-1.2c-0.1-0.2-0.3-0.4-0.5-0.5c-0.1,0-0.3-0.1-0.6-0.1
				c-0.6-0.1-0.9-0.3-0.9-0.6c0-0.1,0.1-0.3,0.2-0.3c0.1-0.1,0.3-0.1,0.6-0.1c0,0,0.2,0,0.4,0c1,0,1.9,0.1,2.8,0.1
				c0.4,0,0.9,0,1.6,0c0.7,0,1.2,0,1.5,0c0.3,0,0.6,0,0.8,0.1c0.2,0.1,0.3,0.2,0.3,0.3c0,0.2-0.3,0.4-0.9,0.6
				c-0.1,0-0.2,0.1-0.3,0.1c-0.5,0-0.8,0.1-0.9,0.3c-0.1,0.2-0.2,0.6-0.2,1.3V180.5z"/>
			<path class="st1" d="M477.5,162.1v-0.1c0-0.4-0.1-0.6-0.2-0.8c-0.1-0.2-0.3-0.3-0.6-0.4c-0.1,0-0.3-0.1-0.6-0.1
				c-0.7-0.1-1-0.3-1-0.6c0-0.2,0.1-0.3,0.3-0.4c0.2-0.1,0.6-0.1,1-0.1h1.7h2.4c0.4,0,0.7,0.2,0.8,0.5v0l4.4,13.3
				c0.2,0.6,0.4,1.1,0.5,1.3c0.1,0.2,0.2,0.3,0.3,0.3c0.1,0,0.3-0.2,0.4-0.7l0,0l4.3-13.3c0.2-0.6,0.4-1,0.6-1.1
				c0.2-0.2,0.5-0.2,0.9-0.2h1.6h2.5c0.4,0,0.6,0,0.7,0.1c0.1,0.1,0.2,0.2,0.2,0.3c0,0.3-0.3,0.5-0.9,0.6c-0.1,0-0.2,0-0.3,0
				c-0.4,0.1-0.7,0.2-0.8,0.4c-0.1,0.2-0.2,0.5-0.2,0.9v0.2l0.4,18.4c0,0.5,0.1,0.9,0.2,1.2c0.1,0.3,0.2,0.5,0.4,0.7
				c0.1,0.1,0.4,0.1,0.9,0.2c0.4,0.1,0.7,0.2,0.7,0.4c0,0.2-0.1,0.3-0.2,0.3c-0.1,0.1-0.4,0.1-0.9,0.1c-0.3,0-0.7,0-1.3,0
				c-0.6,0-1,0-1.3,0c-0.7,0-1.5,0-2.5,0c-1,0-1.6,0-1.8,0H490c-0.2,0-0.4,0-0.5-0.1c-0.1,0-0.1-0.1-0.1-0.2c0-0.3,0.3-0.5,0.9-0.7
				c0.1-0.1,0.2-0.1,0.3-0.1c0.7-0.1,1.1-0.2,1.3-0.4c0.2-0.2,0.3-0.6,0.3-1.2v-0.3l-0.1-14c0-0.6,0-1.1-0.1-1.4
				c-0.1-0.3-0.2-0.5-0.3-0.5c-0.1,0-0.2,0.1-0.3,0.3c-0.1,0.2-0.2,0.4-0.3,0.7l-4.7,15.3l-0.1,0.2c-0.4,1.4-0.8,2.1-1.1,2.1
				c-0.2,0-0.6-0.8-1.1-2.5c0-0.1,0-0.1-0.1-0.2l-4.4-14.7c-0.1-0.3-0.2-0.5-0.3-0.7c-0.1-0.2-0.2-0.3-0.3-0.3
				c-0.1,0-0.2,0.1-0.3,0.3c-0.1,0.2-0.1,0.5-0.1,1l-0.2,14.2v0.1c0,0.6,0.1,1.1,0.3,1.4c0.2,0.3,0.6,0.4,1,0.4h0.2
				c0.2,0,0.4,0.1,0.6,0.1c0.1,0.1,0.2,0.2,0.2,0.4c0,0.2-0.1,0.3-0.2,0.4c-0.1,0.1-0.4,0.1-0.8,0.1c-0.1,0-0.2,0-0.4,0
				c-0.8,0-1.6-0.1-2.4-0.1c-0.3,0-0.7,0-1.1,0c-0.4,0-0.7,0-0.8,0c-0.2,0-0.4,0-0.5-0.1c-0.1-0.1-0.2-0.2-0.2-0.3
				c0-0.4,0.3-0.6,0.9-0.7c0.1,0,0.3,0,0.3,0c0.4-0.1,0.7-0.4,0.9-0.6c0.1-0.3,0.2-0.7,0.3-1.4L477.5,162.1z"/>
			<path class="st1" d="M501.8,179.2c-0.1,0.3-0.1,0.6-0.2,1c0,0.3-0.1,0.6-0.1,0.9c0,0.4,0.1,0.7,0.3,0.9c0.2,0.2,0.5,0.4,0.9,0.5
				c0.2,0.1,0.4,0.1,0.7,0.1c0.5,0.1,0.7,0.2,0.7,0.5c0,0.1-0.1,0.2-0.1,0.3c-0.1,0.1-0.2,0.1-0.5,0.1c-0.1,0-0.2,0-0.4,0
				c-0.7,0-1.5-0.1-2.2-0.1c-0.1,0-0.4,0-0.8,0c-0.4,0-0.7,0-1,0h-0.4c-0.5,0-0.8,0-0.9-0.1c-0.1-0.1-0.2-0.2-0.2-0.4
				c0-0.2,0.2-0.4,0.6-0.5c0.2,0,0.4-0.1,0.5-0.1c0.3-0.1,0.5-0.4,0.7-0.7c0.2-0.4,0.4-0.9,0.6-1.6l5.8-20c0-0.1,0-0.1,0.1-0.2
				c0.2-0.6,0.4-0.9,0.7-0.9c0.2,0,0.3,0.1,0.4,0.2c0.1,0.1,0.2,0.3,0.3,0.7l5.6,19c0,0.2,0.1,0.4,0.2,0.7c0.5,1.7,0.9,2.6,1.3,2.8
				c0.1,0.1,0.4,0.2,0.8,0.3c0.4,0.1,0.6,0.2,0.6,0.4c0,0.2-0.1,0.3-0.1,0.3c-0.1,0.1-0.3,0.1-0.5,0.1c-0.1,0-0.2,0-0.5,0
				c-1,0-2-0.1-3-0.1c-1,0-1.9,0-2.9,0.1c-0.2,0-0.3,0-0.4,0c-0.2,0-0.4,0-0.5-0.1c-0.1-0.1-0.2-0.2-0.2-0.3c0-0.2,0.2-0.4,0.7-0.5
				c0.2,0,0.3-0.1,0.4-0.1c0.4-0.1,0.6-0.2,0.7-0.3c0.1-0.1,0.2-0.3,0.2-0.7c0-0.2,0-0.4,0-0.6c0-0.2-0.1-0.4-0.1-0.5l-1.2-4.4
				c-0.1-0.6-0.3-0.9-0.6-1.1c-0.2-0.1-0.6-0.2-1.2-0.2h-2.8c-0.7,0-1.2,0.1-1.3,0.2c-0.2,0.1-0.3,0.5-0.4,1L501.8,179.2z
				 M503.8,171.8c-0.1,0.3-0.2,0.6-0.2,0.8c-0.1,0.3-0.1,0.5-0.1,0.6c0,0.1,0.1,0.2,0.2,0.3c0.1,0.1,0.3,0.1,0.4,0.1h3.1
				c0.2,0,0.4,0,0.6-0.1c0.1-0.1,0.2-0.2,0.2-0.3c0-0.1,0-0.2,0-0.4c0-0.1,0-0.2-0.1-0.4l-1.6-5.8c0,0,0,0,0-0.1
				c-0.1-0.6-0.3-0.9-0.5-0.9c-0.1,0-0.2,0.1-0.3,0.2c-0.1,0.1-0.2,0.4-0.3,0.9L503.8,171.8z"/>
		</g>
	</g>
</g>
</svg>
